%YAML 1.1
%TAG !u! tag:unity3d.com,2011:
--- !u!74 &7400000
AnimationClip:
  m_ObjectHideFlags: 0
  m_PrefabParentObject: {fileID: 0}
  m_PrefabInternal: {fileID: 0}
  m_Name: perso papillon normal
  serializedVersion: 6
  m_Legacy: 0
  m_Compressed: 0
  m_UseHighQualityCurve: 1
  m_RotationCurves:
  - curve:
      serializedVersion: 2
      m_Curve:
      - time: 0
        value: {x: 0, y: 0, z: .00696167862, w: -.999975741}
        inSlope: {x: 0, y: 0, z: .178449899, w: .00150561321}
        outSlope: {x: 0, y: 0, z: .178449899, w: .00150561321}
        tangentMode: 0
      - time: .0166666675
        value: {x: 0, y: 0, z: .00993584376, w: -.999950647}
        inSlope: {x: 0, y: 0, z: .18355374, w: .00183820724}
        outSlope: {x: 0, y: 0, z: .18355374, w: .00183820724}
        tangentMode: 0
      - time: .0333333351
        value: {x: 0, y: 0, z: .0130801369, w: -.999914467}
        inSlope: {x: 0, y: 0, z: .193352297, w: .00254452205}
        outSlope: {x: 0, y: 0, z: .193352297, w: .00254452205}
        tangentMode: 0
      - time: .0500000045
        value: {x: 0, y: 0, z: .016380921, w: -.99986583}
        inSlope: {x: 0, y: 0, z: .202303767, w: .00332951546}
        outSlope: {x: 0, y: 0, z: .202303767, w: .00332951546}
        tangentMode: 0
      - time: .0666666701
        value: {x: 0, y: 0, z: .0198235959, w: -.999803483}
        inSlope: {x: 0, y: 0, z: .210386172, w: .00418424653}
        outSlope: {x: 0, y: 0, z: .210386172, w: .00418424653}
        tangentMode: 0
      - time: .0833333358
        value: {x: 0, y: 0, z: .023393793, w: -.999726355}
        inSlope: {x: 0, y: 0, z: .217620581, w: .00510513829}
        outSlope: {x: 0, y: 0, z: .217620581, w: .00510513829}
        tangentMode: 0
      - time: .100000001
        value: {x: 0, y: 0, z: .0270776153, w: -.999633312}
        inSlope: {x: 0, y: 0, z: .223992348, w: .00607967423}
        outSlope: {x: 0, y: 0, z: .223992348, w: .00607967423}
        tangentMode: 0
      - time: .116666667
        value: {x: 0, y: 0, z: .0308602042, w: -.999523699}
        inSlope: {x: 0, y: 0, z: .229508311, w: .00709533598}
        outSlope: {x: 0, y: 0, z: .229508311, w: .00709533598}
        tangentMode: 0
      - time: .13333334
        value: {x: 0, y: 0, z: .0347278938, w: -.999396801}
        inSlope: {x: 0, y: 0, z: .23416844, w: .00814497378}
        outSlope: {x: 0, y: 0, z: .23416844, w: .00814497378}
        tangentMode: 0
      - time: .150000006
        value: {x: 0, y: 0, z: .0386658199, w: -.9992522}
        inSlope: {x: 0, y: 0, z: .237965375, w: .00921428297}
        outSlope: {x: 0, y: 0, z: .237965375, w: .00921428297}
        tangentMode: 0
      - time: .166666672
        value: {x: 0, y: 0, z: .0426600724, w: -.999089658}
        inSlope: {x: 0, y: 0, z: .240920842, w: .010292531}
        outSlope: {x: 0, y: 0, z: .240920842, w: .010292531}
        tangentMode: 0
      - time: .183333337
        value: {x: 0, y: 0, z: .0466965139, w: -.998909116}
        inSlope: {x: 0, y: 0, z: .243006587, w: .0113636265}
        outSlope: {x: 0, y: 0, z: .243006587, w: .0113636265}
        tangentMode: 0
      - time: .200000003
        value: {x: 0, y: 0, z: .0507602915, w: -.998710871}
        inSlope: {x: 0, y: 0, z: .244230002, w: .0124150524}
        outSlope: {x: 0, y: 0, z: .244230002, w: .0124150524}
        tangentMode: 0
      - time: .216666669
        value: {x: 0, y: 0, z: .0548375137, w: -.998495281}
        inSlope: {x: 0, y: 0, z: .244605854, w: .0134342918}
        outSlope: {x: 0, y: 0, z: .244605854, w: .0134342918}
        tangentMode: 0
      - time: .233333334
        value: {x: 0, y: 0, z: .0589138195, w: -.998263061}
        inSlope: {x: 0, y: 0, z: .244120717, w: .0144052515}
        outSlope: {x: 0, y: 0, z: .244120717, w: .0144052515}
        tangentMode: 0
      - time: .25
        value: {x: 0, y: 0, z: .0629748702, w: -.998015106}
        inSlope: {x: 0, y: 0, z: .242782295, w: .0153154079}
        outSlope: {x: 0, y: 0, z: .242782295, w: .0153154079}
        tangentMode: 0
      - time: .266666681
        value: {x: 0, y: 0, z: .0670065656, w: -.997752547}
        inSlope: {x: 0, y: 0, z: .240591705, w: .0161522496}
        outSlope: {x: 0, y: 0, z: .240591705, w: .0161522496}
        tangentMode: 0
      - time: .283333361
        value: {x: 0, y: 0, z: .0709946007, w: -.997476697}
        inSlope: {x: 0, y: 0, z: .237550318, w: .0169014782}
        outSlope: {x: 0, y: 0, z: .237550318, w: .0169014782}
        tangentMode: 0
      - time: .300000042
        value: {x: 0, y: 0, z: .074924916, w: -.997189164}
        inSlope: {x: 0, y: 0, z: .233651727, w: .0175469965}
        outSlope: {x: 0, y: 0, z: .233651727, w: .0175469965}
        tangentMode: 0
      - time: .316666722
        value: {x: 0, y: 0, z: .078782998, w: -.996891797}
        inSlope: {x: 0, y: 0, z: .228904665, w: .018079862}
        outSlope: {x: 0, y: 0, z: .228904665, w: .018079862}
        tangentMode: 0
      - time: .333333403
        value: {x: 0, y: 0, z: .082555078, w: -.996586502}
        inSlope: {x: 0, y: 0, z: .223317862, w: .0184875578}
        outSlope: {x: 0, y: 0, z: .223317862, w: .0184875578}
        tangentMode: 0
      - time: .350000083
        value: {x: 0, y: 0, z: .0862269327, w: -.996275544}
        inSlope: {x: 0, y: 0, z: .216870725, w: .0187575668}
        outSlope: {x: 0, y: 0, z: .216870725, w: .0187575668}
        tangentMode: 0
      - time: .366666764
        value: {x: 0, y: 0, z: .0897841081, w: -.995961249}
        inSlope: {x: 0, y: 0, z: .209571764, w: .0188791603}
        outSlope: {x: 0, y: 0, z: .209571764, w: .0188791603}
        tangentMode: 0
      - time: .383333445
        value: {x: 0, y: 0, z: .0932126641, w: -.995646238}
        inSlope: {x: 0, y: 0, z: .201451391, w: .0188451856}
        outSlope: {x: 0, y: 0, z: .201451391, w: .0188451856}
        tangentMode: 0
      - time: .400000125
        value: {x: 0, y: 0, z: .0964991599, w: -.995333076}
        inSlope: {x: 0, y: 0, z: .192482084, w: .0186467022}
        outSlope: {x: 0, y: 0, z: .192482084, w: .0186467022}
        tangentMode: 0
      - time: .416666806
        value: {x: 0, y: 0, z: .0996287391, w: -.995024681}
        inSlope: {x: 0, y: 0, z: .18264398, w: .018272981}
        outSlope: {x: 0, y: 0, z: .18264398, w: .018272981}
        tangentMode: 0
      - time: .433333486
        value: {x: 0, y: 0, z: .102587298, w: -.994723976}
        inSlope: {x: 0, y: 0, z: .17198801, w: .0177222341}
        outSlope: {x: 0, y: 0, z: .17198801, w: .0177222341}
        tangentMode: 0
      - time: .450000167
        value: {x: 0, y: 0, z: .105361678, w: -.994433939}
        inSlope: {x: 0, y: 0, z: .160493419, w: .0169873089}
        outSlope: {x: 0, y: 0, z: .160493419, w: .0169873089}
        tangentMode: 0
      - time: .466666847
        value: {x: 0, y: 0, z: .107937083, w: -.994157732}
        inSlope: {x: 0, y: 0, z: .148147225, w: .0160682071}
        outSlope: {x: 0, y: 0, z: .148147225, w: .0160682071}
        tangentMode: 0
      - time: .483333528
        value: {x: 0, y: 0, z: .110299923, w: -.993898332}
        inSlope: {x: 0, y: 0, z: .134978592, w: .0149649382}
        outSlope: {x: 0, y: 0, z: .134978592, w: .0149649382}
        tangentMode: 0
      - time: .500000179
        value: {x: 0, y: 0, z: .112436369, w: -.9936589}
        inSlope: {x: 0, y: 0, z: .120959029, w: .0136721265}
        outSlope: {x: 0, y: 0, z: .120959029, w: .0136721265}
        tangentMode: 0
      - time: .51666683
        value: {x: 0, y: 0, z: .114331886, w: -.993442595}
        inSlope: {x: 0, y: 0, z: .106095999, w: .0121951215}
        outSlope: {x: 0, y: 0, z: .106095999, w: .0121951215}
        tangentMode: 0
      - time: .53333348
        value: {x: 0, y: 0, z: .115972899, w: -.993252397}
        inSlope: {x: 0, y: 0, z: .0904108733, w: .0105428798}
        outSlope: {x: 0, y: 0, z: .0904108733, w: .0105428798}
        tangentMode: 0
      - time: .550000131
        value: {x: 0, y: 0, z: .117345579, w: -.993091166}
        inSlope: {x: 0, y: 0, z: .0738882273, w: .00872076396}
        outSlope: {x: 0, y: 0, z: .0738882273, w: .00872076396}
        tangentMode: 0
      - time: .566666782
        value: {x: 0, y: 0, z: .118435837, w: -.992961705}
        inSlope: {x: 0, y: 0, z: .0565061495, w: .00673235115}
        outSlope: {x: 0, y: 0, z: .0565061495, w: .00673235115}
        tangentMode: 0
      - time: .583333433
        value: {x: 0, y: 0, z: .119229116, w: -.992866755}
        inSlope: {x: 0, y: 0, z: .0382852182, w: .00459194649}
        outSlope: {x: 0, y: 0, z: .0382852182, w: .00459194649}
        tangentMode: 0
      - time: .600000083
        value: {x: 0, y: 0, z: .11971201, w: -.99280864}
        inSlope: {x: 0, y: 0, z: .0192372687, w: .00231564254}
        outSlope: {x: 0, y: 0, z: .0192372687, w: .00231564254}
        tangentMode: 0
      - time: .616666734
        value: {x: 0, y: 0, z: .119870357, w: -.992789567}
        inSlope: {x: 0, y: 0, z: -.000653341878, w: -7.86782475e-05}
        outSlope: {x: 0, y: 0, z: -.000653341878, w: -7.86782475e-05}
        tangentMode: 0
      - time: .633333385
        value: {x: 0, y: 0, z: .119690232, w: -.992811263}
        inSlope: {x: 0, y: 0, z: -.0214031544, w: -.00257671135}
        outSlope: {x: 0, y: 0, z: -.0214031544, w: -.00257671135}
        tangentMode: 0
      - time: .650000036
        value: {x: 0, y: 0, z: .119156919, w: -.992875457}
        inSlope: {x: 0, y: 0, z: -.0455296487, w: -.00545383012}
        outSlope: {x: 0, y: 0, z: -.0455296487, w: -.00545383012}
        tangentMode: 0
      - time: .666666687
        value: {x: 0, y: 0, z: .118172579, w: -.992993057}
        inSlope: {x: 0, y: 0, z: -.0746347755, w: -.00886202697}
        outSlope: {x: 0, y: 0, z: -.0746347755, w: -.00886202697}
        tangentMode: 0
      - time: .683333337
        value: {x: 0, y: 0, z: .116669096, w: -.993170857}
        inSlope: {x: 0, y: 0, z: -.104825526, w: -.0122881047}
        outSlope: {x: 0, y: 0, z: -.104825526, w: -.0122881047}
        tangentMode: 0
      - time: .699999988
        value: {x: 0, y: 0, z: .114678398, w: -.99340266}
        inSlope: {x: 0, y: 0, z: -.133122623, w: -.015336886}
        outSlope: {x: 0, y: 0, z: -.133122623, w: -.015336886}
        tangentMode: 0
      - time: .716666639
        value: {x: 0, y: 0, z: .112231679, w: -.993682086}
        inSlope: {x: 0, y: 0, z: -.159535706, w: -.0179851241}
        outSlope: {x: 0, y: 0, z: -.159535706, w: -.0179851241}
        tangentMode: 0
      - time: .73333329
        value: {x: 0, y: 0, z: .109360546, w: -.994002163}
        inSlope: {x: 0, y: 0, z: -.184073031, w: -.0202149339}
        outSlope: {x: 0, y: 0, z: -.184073031, w: -.0202149339}
        tangentMode: 0
      - time: .74999994
        value: {x: 0, y: 0, z: .106095918, w: -.994355917}
        inSlope: {x: 0, y: 0, z: -.206719607, w: -.0220191702}
        outSlope: {x: 0, y: 0, z: -.206719607, w: -.0220191702}
        tangentMode: 0
      - time: .766666591
        value: {x: 0, y: 0, z: .102469899, w: -.994736135}
        inSlope: {x: 0, y: 0, z: -.227474123, w: -.0233942494}
        outSlope: {x: 0, y: 0, z: -.227474123, w: -.0233942494}
        tangentMode: 0
      - time: .783333242
        value: {x: 0, y: 0, z: .0985134542, w: -.995135725}
        inSlope: {x: 0, y: 0, z: -.246348828, w: -.0243491158}
        outSlope: {x: 0, y: 0, z: -.246348828, w: -.0243491158}
        tangentMode: 0
      - time: .799999893
        value: {x: 0, y: 0, z: .0942582786, w: -.995547771}
        inSlope: {x: 0, y: 0, z: -.263326794, w: -.0248962883}
        outSlope: {x: 0, y: 0, z: -.263326794, w: -.0248962883}
        tangentMode: 0
      - time: .816666543
        value: {x: 0, y: 0, z: .0897359028, w: -.9959656}
        inSlope: {x: 0, y: 0, z: -.278403729, w: -.0250518564}
        outSlope: {x: 0, y: 0, z: -.278403729, w: -.0250518564}
        tangentMode: 0
      - time: .833333194
        value: {x: 0, y: 0, z: .0849781632, w: -.996382833}
        inSlope: {x: 0, y: 0, z: -.291589916, w: -.0248390678}
        outSlope: {x: 0, y: 0, z: -.291589916, w: -.0248390678}
        tangentMode: 0
      - time: .849999845
        value: {x: 0, y: 0, z: .0800162479, w: -.996793568}
        inSlope: {x: 0, y: 0, z: -.302867293, w: -.0242865309}
        outSlope: {x: 0, y: 0, z: -.302867293, w: -.0242865309}
        tangentMode: 0
      - time: .866666496
        value: {x: 0, y: 0, z: .0748825967, w: -.997192383}
        inSlope: {x: 0, y: 0, z: -.312231779, w: -.0234246477}
        outSlope: {x: 0, y: 0, z: -.312231779, w: -.0234246477}
        tangentMode: 0
      - time: .883333147
        value: {x: 0, y: 0, z: .0696085319, w: -.997574389}
        inSlope: {x: 0, y: 0, z: -.319693029, w: -.0222891793}
        outSlope: {x: 0, y: 0, z: -.319693029, w: -.0222891793}
        tangentMode: 0
      - time: .899999797
        value: {x: 0, y: 0, z: .0642261729, w: -.997935355}
        inSlope: {x: 0, y: 0, z: -.325232893, w: -.0209194608}
        outSlope: {x: 0, y: 0, z: -.325232893, w: -.0209194608}
        tangentMode: 0
      - time: .916666448
        value: {x: 0, y: 0, z: .0587674454, w: -.998271704}
        inSlope: {x: 0, y: 0, z: -.32886225, w: -.0193530507}
        outSlope: {x: 0, y: 0, z: -.32886225, w: -.0193530507}
        tangentMode: 0
      - time: .933333099
        value: {x: 0, y: 0, z: .0532641076, w: -.998580456}
        inSlope: {x: 0, y: 0, z: -.330563486, w: -.0176310707}
        outSlope: {x: 0, y: 0, z: -.330563486, w: -.0176310707}
        tangentMode: 0
      - time: .94999975
        value: {x: 0, y: 0, z: .0477486737, w: -.998859406}
        inSlope: {x: 0, y: 0, z: -.330319732, w: -.0157946497}
        outSlope: {x: 0, y: 0, z: -.330319732, w: -.0157946497}
        tangentMode: 0
      - time: .9666664
        value: {x: 0, y: 0, z: .0422534607, w: -.999106944}
        inSlope: {x: 0, y: 0, z: -.328171849, w: -.0138867032}
        outSlope: {x: 0, y: 0, z: -.328171849, w: -.0138867032}
        tangentMode: 0
      - time: .983333051
        value: {x: 0, y: 0, z: .0368096232, w: -.999322295}
        inSlope: {x: 0, y: 0, z: -.324089706, w: -.0119519345}
        outSlope: {x: 0, y: 0, z: -.324089706, w: -.0119519345}
        tangentMode: 0
      - time: .999999702
        value: {x: 0, y: 0, z: .0314504802, w: -.999505341}
        inSlope: {x: 0, y: 0, z: -.318071842, w: -.010027878}
        outSlope: {x: 0, y: 0, z: -.318071842, w: -.010027878}
        tangentMode: 0
      - time: 1.01666641
        value: {x: 0, y: 0, z: .0262072198, w: -.999656558}
        inSlope: {x: 0, y: 0, z: -.310133338, w: -.00815211888}
        outSlope: {x: 0, y: 0, z: -.310133338, w: -.00815211888}
        tangentMode: 0
      - time: 1.03333306
        value: {x: 0, y: 0, z: .0211126935, w: -.999777079}
        inSlope: {x: 0, y: 0, z: -.300253093, w: -.00636757025}
        outSlope: {x: 0, y: 0, z: -.300253093, w: -.00636757025}
        tangentMode: 0
      - time: 1.04999971
        value: {x: 0, y: 0, z: .0161987934, w: -.99986881}
        inSlope: {x: 0, y: 0, z: -.288452089, w: -.00470459927}
        outSlope: {x: 0, y: 0, z: -.288452089, w: -.00470459927}
        tangentMode: 0
      - time: 1.06666636
        value: {x: 0, y: 0, z: .0114976335, w: -.999933898}
        inSlope: {x: 0, y: 0, z: -.274714768, w: -.00319180521}
        outSlope: {x: 0, y: 0, z: -.274714768, w: -.00319180521}
        tangentMode: 0
      - time: 1.08333337
        value: {x: 0, y: 0, z: .00704154698, w: -.999975204}
        inSlope: {x: 0, y: 0, z: -.267359704, w: -.00247831037}
        outSlope: {x: 0, y: 0, z: -.267359704, w: -.00247831037}
        tangentMode: 0
      m_PreInfinity: 2
      m_PostInfinity: 2
    path: 
  m_CompressedRotationCurves: []
  m_PositionCurves: []
  m_ScaleCurves: []
  m_FloatCurves: []
  m_PPtrCurves: []
  m_SampleRate: 60
  m_WrapMode: 0
  m_Bounds:
    m_Center: {x: 0, y: 0, z: 0}
    m_Extent: {x: 0, y: 0, z: 0}
  m_ClipBindingConstant:
    genericBindings:
    - path: 0
      attribute: 2
      script: {fileID: 0}
      classID: 4
      customType: 0
      isPPtrCurve: 0
    pptrCurveMapping: []
  m_AnimationClipSettings:
    serializedVersion: 2
    m_StartTime: 0
    m_StopTime: 1.08333337
    m_OrientationOffsetY: 0
    m_Level: 0
    m_CycleOffset: 0
    m_LoopTime: 1
    m_LoopBlend: 0
    m_LoopBlendOrientation: 0
    m_LoopBlendPositionY: 0
    m_LoopBlendPositionXZ: 0
    m_KeepOriginalOrientation: 0
    m_KeepOriginalPositionY: 1
    m_KeepOriginalPositionXZ: 0
    m_HeightFromFeet: 0
    m_Mirror: 0
  m_EditorCurves:
  - curve:
      serializedVersion: 2
      m_Curve:
      - time: 0
        value: 0
        inSlope: 0
        outSlope: 0
        tangentMode: 0
      - time: .0166666675
        value: 0
        inSlope: 0
        outSlope: 0
        tangentMode: 0
      - time: .0333333351
        value: 0
        inSlope: 0
        outSlope: 0
        tangentMode: 0
      - time: .0500000045
        value: 0
        inSlope: 0
        outSlope: 0
        tangentMode: 0
      - time: .0666666701
        value: 0
        inSlope: 0
        outSlope: 0
        tangentMode: 0
      - time: .0833333358
        value: 0
        inSlope: 0
        outSlope: 0
        tangentMode: 0
      - time: .100000001
        value: 0
        inSlope: 0
        outSlope: 0
        tangentMode: 0
      - time: .116666667
        value: 0
        inSlope: 0
        outSlope: 0
        tangentMode: 0
      - time: .13333334
        value: 0
        inSlope: 0
        outSlope: 0
        tangentMode: 0
      - time: .150000006
        value: 0
        inSlope: 0
        outSlope: 0
        tangentMode: 0
      - time: .166666672
        value: 0
        inSlope: 0
        outSlope: 0
        tangentMode: 0
      - time: .183333337
        value: 0
        inSlope: 0
        outSlope: 0
        tangentMode: 0
      - time: .200000003
        value: 0
        inSlope: 0
        outSlope: 0
        tangentMode: 0
      - time: .216666669
        value: 0
        inSlope: 0
        outSlope: 0
        tangentMode: 0
      - time: .233333334
        value: 0
        inSlope: 0
        outSlope: 0
        tangentMode: 0
      - time: .25
        value: 0
        inSlope: 0
        outSlope: 0
        tangentMode: 0
      - time: .266666681
        value: 0
        inSlope: 0
        outSlope: 0
        tangentMode: 0
      - time: .283333361
        value: 0
        inSlope: 0
        outSlope: 0
        tangentMode: 0
      - time: .300000042
        value: 0
        inSlope: 0
        outSlope: 0
        tangentMode: 0
      - time: .316666722
        value: 0
        inSlope: 0
        outSlope: 0
        tangentMode: 0
      - time: .333333403
        value: 0
        inSlope: 0
        outSlope: 0
        tangentMode: 0
      - time: .350000083
        value: 0
        inSlope: 0
        outSlope: 0
        tangentMode: 0
      - time: .366666764
        value: 0
        inSlope: 0
        outSlope: 0
        tangentMode: 0
      - time: .383333445
        value: 0
        inSlope: 0
        outSlope: 0
        tangentMode: 0
      - time: .400000125
        value: 0
        inSlope: 0
        outSlope: 0
        tangentMode: 0
      - time: .416666806
        value: 0
        inSlope: 0
        outSlope: 0
        tangentMode: 0
      - time: .433333486
        value: 0
        inSlope: 0
        outSlope: 0
        tangentMode: 0
      - time: .450000167
        value: 0
        inSlope: 0
        outSlope: 0
        tangentMode: 0
      - time: .466666847
        value: 0
        inSlope: 0
        outSlope: 0
        tangentMode: 0
      - time: .483333528
        value: 0
        inSlope: 0
        outSlope: 0
        tangentMode: 0
      - time: .500000179
        value: 0
        inSlope: 0
        outSlope: 0
        tangentMode: 0
      - time: .51666683
        value: 0
        inSlope: 0
        outSlope: 0
        tangentMode: 0
      - time: .53333348
        value: 0
        inSlope: 0
        outSlope: 0
        tangentMode: 0
      - time: .550000131
        value: 0
        inSlope: 0
        outSlope: 0
        tangentMode: 0
      - time: .566666782
        value: 0
        inSlope: 0
        outSlope: 0
        tangentMode: 0
      - time: .583333433
        value: 0
        inSlope: 0
        outSlope: 0
        tangentMode: 0
      - time: .600000083
        value: 0
        inSlope: 0
        outSlope: 0
        tangentMode: 0
      - time: .616666734
        value: 0
        inSlope: 0
        outSlope: 0
        tangentMode: 0
      - time: .633333385
        value: 0
        inSlope: 0
        outSlope: 0
        tangentMode: 0
      - time: .650000036
        value: 0
        inSlope: 0
        outSlope: 0
        tangentMode: 0
      - time: .666666687
        value: 0
        inSlope: 0
        outSlope: 0
        tangentMode: 0
      - time: .683333337
        value: 0
        inSlope: 0
        outSlope: 0
        tangentMode: 0
      - time: .699999988
        value: 0
        inSlope: 0
        outSlope: 0
        tangentMode: 0
      - time: .716666639
        value: 0
        inSlope: 0
        outSlope: 0
        tangentMode: 0
      - time: .73333329
        value: 0
        inSlope: 0
        outSlope: 0
        tangentMode: 0
      - time: .74999994
        value: 0
        inSlope: 0
        outSlope: 0
        tangentMode: 0
      - time: .766666591
        value: 0
        inSlope: 0
        outSlope: 0
        tangentMode: 0
      - time: .783333242
        value: 0
        inSlope: 0
        outSlope: 0
        tangentMode: 0
      - time: .799999893
        value: 0
        inSlope: 0
        outSlope: 0
        tangentMode: 0
      - time: .816666543
        value: 0
        inSlope: 0
        outSlope: 0
        tangentMode: 0
      - time: .833333194
        value: 0
        inSlope: 0
        outSlope: 0
        tangentMode: 0
      - time: .849999845
        value: 0
        inSlope: 0
        outSlope: 0
        tangentMode: 0
      - time: .866666496
        value: 0
        inSlope: 0
        outSlope: 0
        tangentMode: 0
      - time: .883333147
        value: 0
        inSlope: 0
        outSlope: 0
        tangentMode: 0
      - time: .899999797
        value: 0
        inSlope: 0
        outSlope: 0
        tangentMode: 0
      - time: .916666448
        value: 0
        inSlope: 0
        outSlope: 0
        tangentMode: 0
      - time: .933333099
        value: 0
        inSlope: 0
        outSlope: 0
        tangentMode: 0
      - time: .94999975
        value: 0
        inSlope: 0
        outSlope: 0
        tangentMode: 0
      - time: .9666664
        value: 0
        inSlope: 0
        outSlope: 0
        tangentMode: 0
      - time: .983333051
        value: 0
        inSlope: 0
        outSlope: 0
        tangentMode: 0
      - time: .999999702
        value: 0
        inSlope: 0
        outSlope: 0
        tangentMode: 0
      - time: 1.01666641
        value: 0
        inSlope: 0
        outSlope: 0
        tangentMode: 0
      - time: 1.03333306
        value: 0
        inSlope: 0
        outSlope: 0
        tangentMode: 0
      - time: 1.04999971
        value: 0
        inSlope: 0
        outSlope: 0
        tangentMode: 0
      - time: 1.06666636
        value: 0
        inSlope: 0
        outSlope: 0
        tangentMode: 0
      - time: 1.08333337
        value: 0
        inSlope: 0
        outSlope: 0
        tangentMode: 0
      m_PreInfinity: 2
      m_PostInfinity: 2
    attribute: m_LocalRotation.x
    path: 
    classID: 4
    script: {fileID: 0}
  - curve:
      serializedVersion: 2
      m_Curve:
      - time: 0
        value: 0
        inSlope: 0
        outSlope: 0
        tangentMode: 0
      - time: .0166666675
        value: 0
        inSlope: 0
        outSlope: 0
        tangentMode: 0
      - time: .0333333351
        value: 0
        inSlope: 0
        outSlope: 0
        tangentMode: 0
      - time: .0500000045
        value: 0
        inSlope: 0
        outSlope: 0
        tangentMode: 0
      - time: .0666666701
        value: 0
        inSlope: 0
        outSlope: 0
        tangentMode: 0
      - time: .0833333358
        value: 0
        inSlope: 0
        outSlope: 0
        tangentMode: 0
      - time: .100000001
        value: 0
        inSlope: 0
        outSlope: 0
        tangentMode: 0
      - time: .116666667
        value: 0
        inSlope: 0
        outSlope: 0
        tangentMode: 0
      - time: .13333334
        value: 0
        inSlope: 0
        outSlope: 0
        tangentMode: 0
      - time: .150000006
        value: 0
        inSlope: 0
        outSlope: 0
        tangentMode: 0
      - time: .166666672
        value: 0
        inSlope: 0
        outSlope: 0
        tangentMode: 0
      - time: .183333337
        value: 0
        inSlope: 0
        outSlope: 0
        tangentMode: 0
      - time: .200000003
        value: 0
        inSlope: 0
        outSlope: 0
        tangentMode: 0
      - time: .216666669
        value: 0
        inSlope: 0
        outSlope: 0
        tangentMode: 0
      - time: .233333334
        value: 0
        inSlope: 0
        outSlope: 0
        tangentMode: 0
      - time: .25
        value: 0
        inSlope: 0
        outSlope: 0
        tangentMode: 0
      - time: .266666681
        value: 0
        inSlope: 0
        outSlope: 0
        tangentMode: 0
      - time: .283333361
        value: 0
        inSlope: 0
        outSlope: 0
        tangentMode: 0
      - time: .300000042
        value: 0
        inSlope: 0
        outSlope: 0
        tangentMode: 0
      - time: .316666722
        value: 0
        inSlope: 0
        outSlope: 0
        tangentMode: 0
      - time: .333333403
        value: 0
        inSlope: 0
        outSlope: 0
        tangentMode: 0
      - time: .350000083
        value: 0
        inSlope: 0
        outSlope: 0
        tangentMode: 0
      - time: .366666764
        value: 0
        inSlope: 0
        outSlope: 0
        tangentMode: 0
      - time: .383333445
        value: 0
        inSlope: 0
        outSlope: 0
        tangentMode: 0
      - time: .400000125
        value: 0
        inSlope: 0
        outSlope: 0
        tangentMode: 0
      - time: .416666806
        value: 0
        inSlope: 0
        outSlope: 0
        tangentMode: 0
      - time: .433333486
        value: 0
        inSlope: 0
        outSlope: 0
        tangentMode: 0
      - time: .450000167
        value: 0
        inSlope: 0
        outSlope: 0
        tangentMode: 0
      - time: .466666847
        value: 0
        inSlope: 0
        outSlope: 0
        tangentMode: 0
      - time: .483333528
        value: 0
        inSlope: 0
        outSlope: 0
        tangentMode: 0
      - time: .500000179
        value: 0
        inSlope: 0
        outSlope: 0
        tangentMode: 0
      - time: .51666683
        value: 0
        inSlope: 0
        outSlope: 0
        tangentMode: 0
      - time: .53333348
        value: 0
        inSlope: 0
        outSlope: 0
        tangentMode: 0
      - time: .550000131
        value: 0
        inSlope: 0
        outSlope: 0
        tangentMode: 0
      - time: .566666782
        value: 0
        inSlope: 0
        outSlope: 0
        tangentMode: 0
      - time: .583333433
        value: 0
        inSlope: 0
        outSlope: 0
        tangentMode: 0
      - time: .600000083
        value: 0
        inSlope: 0
        outSlope: 0
        tangentMode: 0
      - time: .616666734
        value: 0
        inSlope: 0
        outSlope: 0
        tangentMode: 0
      - time: .633333385
        value: 0
        inSlope: 0
        outSlope: 0
        tangentMode: 0
      - time: .650000036
        value: 0
        inSlope: 0
        outSlope: 0
        tangentMode: 0
      - time: .666666687
        value: 0
        inSlope: 0
        outSlope: 0
        tangentMode: 0
      - time: .683333337
        value: 0
        inSlope: 0
        outSlope: 0
        tangentMode: 0
      - time: .699999988
        value: 0
        inSlope: 0
        outSlope: 0
        tangentMode: 0
      - time: .716666639
        value: 0
        inSlope: 0
        outSlope: 0
        tangentMode: 0
      - time: .73333329
        value: 0
        inSlope: 0
        outSlope: 0
        tangentMode: 0
      - time: .74999994
        value: 0
        inSlope: 0
        outSlope: 0
        tangentMode: 0
      - time: .766666591
        value: 0
        inSlope: 0
        outSlope: 0
        tangentMode: 0
      - time: .783333242
        value: 0
        inSlope: 0
        outSlope: 0
        tangentMode: 0
      - time: .799999893
        value: 0
        inSlope: 0
        outSlope: 0
        tangentMode: 0
      - time: .816666543
        value: 0
        inSlope: 0
        outSlope: 0
        tangentMode: 0
      - time: .833333194
        value: 0
        inSlope: 0
        outSlope: 0
        tangentMode: 0
      - time: .849999845
        value: 0
        inSlope: 0
        outSlope: 0
        tangentMode: 0
      - time: .866666496
        value: 0
        inSlope: 0
        outSlope: 0
        tangentMode: 0
      - time: .883333147
        value: 0
        inSlope: 0
        outSlope: 0
        tangentMode: 0
      - time: .899999797
        value: 0
        inSlope: 0
        outSlope: 0
        tangentMode: 0
      - time: .916666448
        value: 0
        inSlope: 0
        outSlope: 0
        tangentMode: 0
      - time: .933333099
        value: 0
        inSlope: 0
        outSlope: 0
        tangentMode: 0
      - time: .94999975
        value: 0
        inSlope: 0
        outSlope: 0
        tangentMode: 0
      - time: .9666664
        value: 0
        inSlope: 0
        outSlope: 0
        tangentMode: 0
      - time: .983333051
        value: 0
        inSlope: 0
        outSlope: 0
        tangentMode: 0
      - time: .999999702
        value: 0
        inSlope: 0
        outSlope: 0
        tangentMode: 0
      - time: 1.01666641
        value: 0
        inSlope: 0
        outSlope: 0
        tangentMode: 0
      - time: 1.03333306
        value: 0
        inSlope: 0
        outSlope: 0
        tangentMode: 0
      - time: 1.04999971
        value: 0
        inSlope: 0
        outSlope: 0
        tangentMode: 0
      - time: 1.06666636
        value: 0
        inSlope: 0
        outSlope: 0
        tangentMode: 0
      - time: 1.08333337
        value: 0
        inSlope: 0
        outSlope: 0
        tangentMode: 0
      m_PreInfinity: 2
      m_PostInfinity: 2
    attribute: m_LocalRotation.y
    path: 
    classID: 4
    script: {fileID: 0}
  - curve:
      serializedVersion: 2
      m_Curve:
      - time: 0
        value: .00696167862
        inSlope: .178449899
        outSlope: .178449899
        tangentMode: 0
      - time: .0166666675
        value: .00993584376
        inSlope: .18355374
        outSlope: .18355374
        tangentMode: 0
      - time: .0333333351
        value: .0130801369
        inSlope: .193352297
        outSlope: .193352297
        tangentMode: 0
      - time: .0500000045
        value: .016380921
        inSlope: .202303767
        outSlope: .202303767
        tangentMode: 0
      - time: .0666666701
        value: .0198235959
        inSlope: .210386172
        outSlope: .210386172
        tangentMode: 0
      - time: .0833333358
        value: .023393793
        inSlope: .217620581
        outSlope: .217620581
        tangentMode: 0
      - time: .100000001
        value: .0270776153
        inSlope: .223992348
        outSlope: .223992348
        tangentMode: 0
      - time: .116666667
        value: .0308602042
        inSlope: .229508311
        outSlope: .229508311
        tangentMode: 0
      - time: .13333334
        value: .0347278938
        inSlope: .23416844
        outSlope: .23416844
        tangentMode: 0
      - time: .150000006
        value: .0386658199
        inSlope: .237965375
        outSlope: .237965375
        tangentMode: 0
      - time: .166666672
        value: .0426600724
        inSlope: .240920842
        outSlope: .240920842
        tangentMode: 0
      - time: .183333337
        value: .0466965139
        inSlope: .243006587
        outSlope: .243006587
        tangentMode: 0
      - time: .200000003
        value: .0507602915
        inSlope: .244230002
        outSlope: .244230002
        tangentMode: 0
      - time: .216666669
        value: .0548375137
        inSlope: .244605854
        outSlope: .244605854
        tangentMode: 0
      - time: .233333334
        value: .0589138195
        inSlope: .244120717
        outSlope: .244120717
        tangentMode: 0
      - time: .25
        value: .0629748702
        inSlope: .242782295
        outSlope: .242782295
        tangentMode: 0
      - time: .266666681
        value: .0670065656
        inSlope: .240591705
        outSlope: .240591705
        tangentMode: 0
      - time: .283333361
        value: .0709946007
        inSlope: .237550318
        outSlope: .237550318
        tangentMode: 0
      - time: .300000042
        value: .074924916
        inSlope: .233651727
        outSlope: .233651727
        tangentMode: 0
      - time: .316666722
        value: .078782998
        inSlope: .228904665
        outSlope: .228904665
        tangentMode: 0
      - time: .333333403
        value: .082555078
        inSlope: .223317862
        outSlope: .223317862
        tangentMode: 0
      - time: .350000083
        value: .0862269327
        inSlope: .216870725
        outSlope: .216870725
        tangentMode: 0
      - time: .366666764
        value: .0897841081
        inSlope: .209571764
        outSlope: .209571764
        tangentMode: 0
      - time: .383333445
        value: .0932126641
        inSlope: .201451391
        outSlope: .201451391
        tangentMode: 0
      - time: .400000125
        value: .0964991599
        inSlope: .192482084
        outSlope: .192482084
        tangentMode: 0
      - time: .416666806
        value: .0996287391
        inSlope: .18264398
        outSlope: .18264398
        tangentMode: 0
      - time: .433333486
        value: .102587298
        inSlope: .17198801
        outSlope: .17198801
        tangentMode: 0
      - time: .450000167
        value: .105361678
        inSlope: .160493419
        outSlope: .160493419
        tangentMode: 0
      - time: .466666847
        value: .107937083
        inSlope: .148147225
        outSlope: .148147225
        tangentMode: 0
      - time: .483333528
        value: .110299923
        inSlope: .134978592
        outSlope: .134978592
        tangentMode: 0
      - time: .500000179
        value: .112436369
        inSlope: .120959029
        outSlope: .120959029
        tangentMode: 0
      - time: .51666683
        value: .114331886
        inSlope: .106095999
        outSlope: .106095999
        tangentMode: 0
      - time: .53333348
        value: .115972899
        inSlope: .0904108733
        outSlope: .0904108733
        tangentMode: 0
      - time: .550000131
        value: .117345579
        inSlope: .0738882273
        outSlope: .0738882273
        tangentMode: 0
      - time: .566666782
        value: .118435837
        inSlope: .0565061495
        outSlope: .0565061495
        tangentMode: 0
      - time: .583333433
        value: .119229116
        inSlope: .0382852182
        outSlope: .0382852182
        tangentMode: 0
      - time: .600000083
        value: .11971201
        inSlope: .0192372687
        outSlope: .0192372687
        tangentMode: 0
      - time: .616666734
        value: .119870357
        inSlope: -.000653341878
        outSlope: -.000653341878
        tangentMode: 0
      - time: .633333385
        value: .119690232
        inSlope: -.0214031544
        outSlope: -.0214031544
        tangentMode: 0
      - time: .650000036
        value: .119156919
        inSlope: -.0455296487
        outSlope: -.0455296487
        tangentMode: 0
      - time: .666666687
        value: .118172579
        inSlope: -.0746347755
        outSlope: -.0746347755
        tangentMode: 0
      - time: .683333337
        value: .116669096
        inSlope: -.104825526
        outSlope: -.104825526
        tangentMode: 0
      - time: .699999988
        value: .114678398
        inSlope: -.133122623
        outSlope: -.133122623
        tangentMode: 0
      - time: .716666639
        value: .112231679
        inSlope: -.159535706
        outSlope: -.159535706
        tangentMode: 0
      - time: .73333329
        value: .109360546
        inSlope: -.184073031
        outSlope: -.184073031
        tangentMode: 0
      - time: .74999994
        value: .106095918
        inSlope: -.206719607
        outSlope: -.206719607
        tangentMode: 0
      - time: .766666591
        value: .102469899
        inSlope: -.227474123
        outSlope: -.227474123
        tangentMode: 0
      - time: .783333242
        value: .0985134542
        inSlope: -.246348828
        outSlope: -.246348828
        tangentMode: 0
      - time: .799999893
        value: .0942582786
        inSlope: -.263326794
        outSlope: -.263326794
        tangentMode: 0
      - time: .816666543
        value: .0897359028
        inSlope: -.278403729
        outSlope: -.278403729
        tangentMode: 0
      - time: .833333194
        value: .0849781632
        inSlope: -.291589916
        outSlope: -.291589916
        tangentMode: 0
      - time: .849999845
        value: .0800162479
        inSlope: -.302867293
        outSlope: -.302867293
        tangentMode: 0
      - time: .866666496
        value: .0748825967
        inSlope: -.312231779
        outSlope: -.312231779
        tangentMode: 0
      - time: .883333147
        value: .0696085319
        inSlope: -.319693029
        outSlope: -.319693029
        tangentMode: 0
      - time: .899999797
        value: .0642261729
        inSlope: -.325232893
        outSlope: -.325232893
        tangentMode: 0
      - time: .916666448
        value: .0587674454
        inSlope: -.32886225
        outSlope: -.32886225
        tangentMode: 0
      - time: .933333099
        value: .0532641076
        inSlope: -.330563486
        outSlope: -.330563486
        tangentMode: 0
      - time: .94999975
        value: .0477486737
        inSlope: -.330319732
        outSlope: -.330319732
        tangentMode: 0
      - time: .9666664
        value: .0422534607
        inSlope: -.328171849
        outSlope: -.328171849
        tangentMode: 0
      - time: .983333051
        value: .0368096232
        inSlope: -.324089706
        outSlope: -.324089706
        tangentMode: 0
      - time: .999999702
        value: .0314504802
        inSlope: -.318071842
        outSlope: -.318071842
        tangentMode: 0
      - time: 1.01666641
        value: .0262072198
        inSlope: -.310133338
        outSlope: -.310133338
        tangentMode: 0
      - time: 1.03333306
        value: .0211126935
        inSlope: -.300253093
        outSlope: -.300253093
        tangentMode: 0
      - time: 1.04999971
        value: .0161987934
        inSlope: -.288452089
        outSlope: -.288452089
        tangentMode: 0
      - time: 1.06666636
        value: .0114976335
        inSlope: -.274714768
        outSlope: -.274714768
        tangentMode: 0
      - time: 1.08333337
        value: .00704154698
        inSlope: -.267359704
        outSlope: -.267359704
        tangentMode: 0
      m_PreInfinity: 2
      m_PostInfinity: 2
    attribute: m_LocalRotation.z
    path: 
    classID: 4
    script: {fileID: 0}
  - curve:
      serializedVersion: 2
      m_Curve:
      - time: 0
        value: -.999975741
        inSlope: .00150561321
        outSlope: .00150561321
        tangentMode: 0
      - time: .0166666675
        value: -.999950647
        inSlope: .00183820724
        outSlope: .00183820724
        tangentMode: 0
      - time: .0333333351
        value: -.999914467
        inSlope: .00254452205
        outSlope: .00254452205
        tangentMode: 0
      - time: .0500000045
        value: -.99986583
        inSlope: .00332951546
        outSlope: .00332951546
        tangentMode: 0
      - time: .0666666701
        value: -.999803483
        inSlope: .00418424653
        outSlope: .00418424653
        tangentMode: 0
      - time: .0833333358
        value: -.999726355
        inSlope: .00510513829
        outSlope: .00510513829
        tangentMode: 0
      - time: .100000001
        value: -.999633312
        inSlope: .00607967423
        outSlope: .00607967423
        tangentMode: 0
      - time: .116666667
        value: -.999523699
        inSlope: .00709533598
        outSlope: .00709533598
        tangentMode: 0
      - time: .13333334
        value: -.999396801
        inSlope: .00814497378
        outSlope: .00814497378
        tangentMode: 0
      - time: .150000006
        value: -.9992522
        inSlope: .00921428297
        outSlope: .00921428297
        tangentMode: 0
      - time: .166666672
        value: -.999089658
        inSlope: .010292531
        outSlope: .010292531
        tangentMode: 0
      - time: .183333337
        value: -.998909116
        inSlope: .0113636265
        outSlope: .0113636265
        tangentMode: 0
      - time: .200000003
        value: -.998710871
        inSlope: .0124150524
        outSlope: .0124150524
        tangentMode: 0
      - time: .216666669
        value: -.998495281
        inSlope: .0134342918
        outSlope: .0134342918
        tangentMode: 0
      - time: .233333334
        value: -.998263061
        inSlope: .0144052515
        outSlope: .0144052515
        tangentMode: 0
      - time: .25
        value: -.998015106
        inSlope: .0153154079
        outSlope: .0153154079
        tangentMode: 0
      - time: .266666681
        value: -.997752547
        inSlope: .0161522496
        outSlope: .0161522496
        tangentMode: 0
      - time: .283333361
        value: -.997476697
        inSlope: .0169014782
        outSlope: .0169014782
        tangentMode: 0
      - time: .300000042
        value: -.997189164
        inSlope: .0175469965
        outSlope: .0175469965
        tangentMode: 0
      - time: .316666722
        value: -.996891797
        inSlope: .018079862
        outSlope: .018079862
        tangentMode: 0
      - time: .333333403
        value: -.996586502
        inSlope: .0184875578
        outSlope: .0184875578
        tangentMode: 0
      - time: .350000083
        value: -.996275544
        inSlope: .0187575668
        outSlope: .0187575668
        tangentMode: 0
      - time: .366666764
        value: -.995961249
        inSlope: .0188791603
        outSlope: .0188791603
        tangentMode: 0
      - time: .383333445
        value: -.995646238
        inSlope: .0188451856
        outSlope: .0188451856
        tangentMode: 0
      - time: .400000125
        value: -.995333076
        inSlope: .0186467022
        outSlope: .0186467022
        tangentMode: 0
      - time: .416666806
        value: -.995024681
        inSlope: .018272981
        outSlope: .018272981
        tangentMode: 0
      - time: .433333486
        value: -.994723976
        inSlope: .0177222341
        outSlope: .0177222341
        tangentMode: 0
      - time: .450000167
        value: -.994433939
        inSlope: .0169873089
        outSlope: .0169873089
        tangentMode: 0
      - time: .466666847
        value: -.994157732
        inSlope: .0160682071
        outSlope: .0160682071
        tangentMode: 0
      - time: .483333528
        value: -.993898332
        inSlope: .0149649382
        outSlope: .0149649382
        tangentMode: 0
      - time: .500000179
        value: -.9936589
        inSlope: .0136721265
        outSlope: .0136721265
        tangentMode: 0
      - time: .51666683
        value: -.993442595
        inSlope: .0121951215
        outSlope: .0121951215
        tangentMode: 0
      - time: .53333348
        value: -.993252397
        inSlope: .0105428798
        outSlope: .0105428798
        tangentMode: 0
      - time: .550000131
        value: -.993091166
        inSlope: .00872076396
        outSlope: .00872076396
        tangentMode: 0
      - time: .566666782
        value: -.992961705
        inSlope: .00673235115
        outSlope: .00673235115
        tangentMode: 0
      - time: .583333433
        value: -.992866755
        inSlope: .00459194649
        outSlope: .00459194649
        tangentMode: 0
      - time: .600000083
        value: -.99280864
        inSlope: .00231564254
        outSlope: .00231564254
        tangentMode: 0
      - time: .616666734
        value: -.992789567
        inSlope: -7.86782475e-05
        outSlope: -7.86782475e-05
        tangentMode: 0
      - time: .633333385
        value: -.992811263
        inSlope: -.00257671135
        outSlope: -.00257671135
        tangentMode: 0
      - time: .650000036
        value: -.992875457
        inSlope: -.00545383012
        outSlope: -.00545383012
        tangentMode: 0
      - time: .666666687
        value: -.992993057
        inSlope: -.00886202697
        outSlope: -.00886202697
        tangentMode: 0
      - time: .683333337
        value: -.993170857
        inSlope: -.0122881047
        outSlope: -.0122881047
        tangentMode: 0
      - time: .699999988
        value: -.99340266
        inSlope: -.015336886
        outSlope: -.015336886
        tangentMode: 0
      - time: .716666639
        value: -.993682086
        inSlope: -.0179851241
        outSlope: -.0179851241
        tangentMode: 0
      - time: .73333329
        value: -.994002163
        inSlope: -.0202149339
        outSlope: -.0202149339
        tangentMode: 0
      - time: .74999994
        value: -.994355917
        inSlope: -.0220191702
        outSlope: -.0220191702
        tangentMode: 0
      - time: .766666591
        value: -.994736135
        inSlope: -.0233942494
        outSlope: -.0233942494
        tangentMode: 0
      - time: .783333242
        value: -.995135725
        inSlope: -.0243491158
        outSlope: -.0243491158
        tangentMode: 0
      - time: .799999893
        value: -.995547771
        inSlope: -.0248962883
        outSlope: -.0248962883
        tangentMode: 0
      - time: .816666543
        value: -.9959656
        inSlope: -.0250518564
        outSlope: -.0250518564
        tangentMode: 0
      - time: .833333194
        value: -.996382833
        inSlope: -.0248390678
        outSlope: -.0248390678
        tangentMode: 0
      - time: .849999845
        value: -.996793568
        inSlope: -.0242865309
        outSlope: -.0242865309
        tangentMode: 0
      - time: .866666496
        value: -.997192383
        inSlope: -.0234246477
        outSlope: -.0234246477
        tangentMode: 0
      - time: .883333147
        value: -.997574389
        inSlope: -.0222891793
        outSlope: -.0222891793
        tangentMode: 0
      - time: .899999797
        value: -.997935355
        inSlope: -.0209194608
        outSlope: -.0209194608
        tangentMode: 0
      - time: .916666448
        value: -.998271704
        inSlope: -.0193530507
        outSlope: -.0193530507
        tangentMode: 0
      - time: .933333099
        value: -.998580456
        inSlope: -.0176310707
        outSlope: -.0176310707
        tangentMode: 0
      - time: .94999975
        value: -.998859406
        inSlope: -.0157946497
        outSlope: -.0157946497
        tangentMode: 0
      - time: .9666664
        value: -.999106944
        inSlope: -.0138867032
        outSlope: -.0138867032
        tangentMode: 0
      - time: .983333051
        value: -.999322295
        inSlope: -.0119519345
        outSlope: -.0119519345
        tangentMode: 0
      - time: .999999702
        value: -.999505341
        inSlope: -.010027878
        outSlope: -.010027878
        tangentMode: 0
      - time: 1.01666641
        value: -.999656558
        inSlope: -.00815211888
        outSlope: -.00815211888
        tangentMode: 0
      - time: 1.03333306
        value: -.999777079
        inSlope: -.00636757025
        outSlope: -.00636757025
        tangentMode: 0
      - time: 1.04999971
        value: -.99986881
        inSlope: -.00470459927
        outSlope: -.00470459927
        tangentMode: 0
      - time: 1.06666636
        value: -.999933898
        inSlope: -.00319180521
        outSlope: -.00319180521
        tangentMode: 0
      - time: 1.08333337
        value: -.999975204
        inSlope: -.00247831037
        outSlope: -.00247831037
        tangentMode: 0
      m_PreInfinity: 2
      m_PostInfinity: 2
    attribute: m_LocalRotation.w
    path: 
    classID: 4
    script: {fileID: 0}
  m_EulerEditorCurves:
  - curve:
      serializedVersion: 2
      m_Curve:
      - time: 0
        value: 0
        inSlope: 0
        outSlope: 0
        tangentMode: 10
      - time: .833333313
        value: 0
        inSlope: 0
        outSlope: 0
        tangentMode: 10
      - time: 1.08333337
        value: 0
        inSlope: 0
        outSlope: 0
        tangentMode: 10
      m_PreInfinity: 2
      m_PostInfinity: 2
    attribute: localEulerAnglesBaked.x
    path: 
    classID: 4
    script: {fileID: 0}
  - curve:
      serializedVersion: 2
      m_Curve:
      - time: 0
        value: 0
        inSlope: 0
        outSlope: 0
        tangentMode: 10
      - time: .833333313
        value: 0
        inSlope: 0
        outSlope: 0
        tangentMode: 10
      - time: 1.08333337
        value: 0
        inSlope: 0
        outSlope: 0
        tangentMode: 10
      m_PreInfinity: 2
      m_PostInfinity: 2
    attribute: localEulerAnglesBaked.y
    path: 
    classID: 4
    script: {fileID: 0}
  - curve:
      serializedVersion: 2
      m_Curve:
      - time: 0
        value: 359.202209
        inSlope: -19.8294315
        outSlope: -19.8294315
        tangentMode: 10
      - time: .649999976
        value: 346.31308
        inSlope: 4.9467907
        outSlope: 4.9467907
        tangentMode: 10
      - time: 1.08333337
        value: 359.193054
        inSlope: 29.7230129
        outSlope: 29.7230129
        tangentMode: 10
      m_PreInfinity: 2
      m_PostInfinity: 2
    attribute: localEulerAnglesBaked.z
    path: 
    classID: 4
    script: {fileID: 0}
  m_HasGenericRootTransform: 1
  m_HasMotionFloatCurves: 0
  m_GenerateMotionCurves: 0
  m_Events: []
