%YAML 1.1
%TAG !u! tag:unity3d.com,2011:
--- !u!74 &7400000
AnimationClip:
  m_ObjectHideFlags: 0
  m_PrefabParentObject: {fileID: 0}
  m_PrefabInternal: {fileID: 0}
  m_Name: bnane
  serializedVersion: 6
  m_Legacy: 0
  m_Compressed: 0
  m_UseHighQualityCurve: 1
  m_RotationCurves:
  - curve:
      serializedVersion: 2
      m_Curve:
      - time: 0
        value: {x: -.000168597471, y: .000108747983, z: .00262159458, w: -.999996543}
        inSlope: {x: -.0145504922, y: .166511327, z: 2.51209974, w: .0594592057}
        outSlope: {x: -.0145504922, y: .166511327, z: 2.51209974, w: .0594592057}
        tangentMode: 0
      - time: .0166666675
        value: {x: -.000411105691, y: .00288393698, z: .0444899276, w: -.999005556}
        inSlope: {x: -.024094101, y: .168693334, z: 2.5022068, w: .111626379}
        outSlope: {x: -.024094101, y: .168693334, z: 2.5022068, w: .111626379}
        tangentMode: 0
      - time: .0333333351
        value: {x: -.000971734233, y: .00573185971, z: .0860284939, w: -.996275663}
        inSlope: {x: -.0430192798, y: .171878785, z: 2.48138714, w: .215038031}
        outSlope: {x: -.0430192798, y: .171878785, z: 2.48138714, w: .215038031}
        tangentMode: 0
      - time: .0500000045
        value: {x: -.0018450818, y: .00861323066, z: .127202839, w: -.991837621}
        inSlope: {x: -.0615109131, y: .172759801, z: 2.45855904, w: .316708088}
        outSlope: {x: -.0615109131, y: .172759801, z: 2.45855904, w: .316708088}
        tangentMode: 0
      - time: .0666666701
        value: {x: -.00302209798, y: .0114905201, z: .167980462, w: -.985718727}
        inSlope: {x: -.079358086, y: .171448171, z: 2.43382788, w: .416833192}
        outSlope: {x: -.079358086, y: .171448171, z: 2.43382788, w: .416833192}
        tangentMode: 0
      - time: .0833333358
        value: {x: -.0044903513, y: .0143281696, z: .208330423, w: -.977943182}
        inSlope: {x: -.096365571, y: .168067619, z: 2.40726709, w: .51559931}
        outSlope: {x: -.096365571, y: .168067619, z: 2.40726709, w: .51559931}
        tangentMode: 0
      - time: .100000001
        value: {x: -.00623428356, y: .0170927737, z: .248222694, w: -.968532085}
        inSlope: {x: -.112353548, y: .162752852, z: 2.37892103, w: .613203108}
        outSlope: {x: -.112353548, y: .162752852, z: 2.37892103, w: .613203108}
        tangentMode: 0
      - time: .116666667
        value: {x: -.00823546946, y: .0197532643, z: .287627786, w: -.95750308}
        inSlope: {x: -.127157107, y: .155648857, z: 2.34880972, w: .709837556}
        outSlope: {x: -.127157107, y: .155648857, z: 2.34880972, w: .709837556}
        tangentMode: 0
      - time: .13333334
        value: {x: -.0104728546, y: .0222810693, z: .32651636, w: -.94487083}
        inSlope: {x: -.140625909, y: .146909654, z: 2.31692314, w: .805683613}
        outSlope: {x: -.140625909, y: .146909654, z: 2.31692314, w: .805683613}
        tangentMode: 0
      - time: .150000006
        value: {x: -.0129230004, y: .0246502534, z: .364858568, w: -.930646956}
        inSlope: {x: -.15262419, y: .136698455, z: 2.28322077, w: .90093261}
        outSlope: {x: -.15262419, y: .136698455, z: 2.28322077, w: .90093261}
        tangentMode: 0
      - time: .166666672
        value: {x: -.0155603271, y: .0268376842, z: .402623713, w: -.914839745}
        inSlope: {x: -.163030714, y: .12518765, z: 2.24764299, w: .995754123}
        outSlope: {x: -.163030714, y: .12518765, z: 2.24764299, w: .995754123}
        tangentMode: 0
      - time: .183333337
        value: {x: -.018357357, y: .0288231745, z: .439779997, w: -.897455156}
        inSlope: {x: -.171738222, y: .112557292, z: 2.21009588, w: 1.09030378}
        outSlope: {x: -.171738222, y: .112557292, z: 2.21009588, w: 1.09030378}
        tangentMode: 0
      - time: .200000003
        value: {x: -.0212849341, y: .0305895936, z: .476293564, w: -.878496289}
        inSlope: {x: -.178653896, y: .098995313, z: 2.17045259, w: 1.18474793}
        outSlope: {x: -.178653896, y: .098995313, z: 2.17045259, w: 1.18474793}
        tangentMode: 0
      - time: .216666669
        value: {x: -.0243124869, y: .0321230181, z: .512128413, w: -.857963562}
        inSlope: {x: -.18369998, y: .0846984088, z: 2.12856913, w: 1.27922428}
        outSlope: {x: -.18369998, y: .0846984088, z: 2.12856913, w: 1.27922428}
        tangentMode: 0
      - time: .233333334
        value: {x: -.0274082664, y: .0334128737, z: .54724586, w: -.835855484}
        inSlope: {x: -.186814308, y: .0698711053, z: 2.08427334, w: 1.37386513}
        outSlope: {x: -.186814308, y: .0698711053, z: 2.08427334, w: 1.37386513}
        tangentMode: 0
      - time: .25
        value: {x: -.03053963, y: .0344520546, z: .581604183, w: -.812168062}
        inSlope: {x: -.187950313, y: .0547255389, z: 2.03735352, w: 1.46878064}
        outSlope: {x: -.187950313, y: .0547255389, z: 2.03735352, w: 1.46878064}
        tangentMode: 0
      - time: .266666681
        value: {x: -.033673279, y: .035237059, z: .615157664, w: -.78689611}
        inSlope: {x: -.187077835, y: .0394816361, z: 1.98757422, w: 1.56405735}
        outSlope: {x: -.187077835, y: .0394816361, z: 1.98757422, w: 1.56405735}
        tangentMode: 0
      - time: .283333361
        value: {x: -.0367755629, y: .0357681103, z: .647856712, w: -.760032773}
        inSlope: {x: -.184185132, y: .0243668426, z: 1.93468118, w: 1.65977097}
        outSlope: {x: -.184185132, y: .0243668426, z: 1.93468118, w: 1.65977097}
        tangentMode: 0
      - time: .300000042
        value: {x: -.0398127884, y: .0360492878, z: .679647088, w: -.731570363}
        inSlope: {x: -.179279596, y: .0096152639, z: 1.8783834, w: 1.75596738}
        outSlope: {x: -.179279596, y: .0096152639, z: 1.8783834, w: 1.75596738}
        tangentMode: 0
      - time: .316666722
        value: {x: -.0427515544, y: .0360886194, z: .710469544, w: -.701500475}
        inSlope: {x: -.172388896, y: -.00453114137, z: 1.81836092, w: 1.85266101}
        outSlope: {x: -.172388896, y: -.00453114137, z: 1.81836092, w: 1.85266101}
        tangentMode: 0
      - time: .333333403
        value: {x: -.0455590896, y: .0358982496, z: .740259171, w: -.669814944}
        inSlope: {x: -.163562983, y: -.0178252757, z: 1.75426698, w: 1.94983196}
        outSlope: {x: -.163562983, y: -.0178252757, z: 1.75426698, w: 1.94983196}
        tangentMode: 0
      - time: .350000083
        value: {x: -.0482036583, y: .035494443, z: .768945158, w: -.636506021}
        inSlope: {x: -.152876168, y: -.0300144516, z: 1.68573296, w: 2.0474267}
        outSlope: {x: -.152876168, y: -.0300144516, z: 1.68573296, w: 2.0474267}
        tangentMode: 0
      - time: .366666764
        value: {x: -.0506549664, y: .034897767, z: .796450317, w: -.601567328}
        inSlope: {x: -.140428171, y: -.0408424102, z: 1.61236572, w: 2.14535952}
        outSlope: {x: -.140428171, y: -.0408424102, z: 1.61236572, w: 2.14535952}
        tangentMode: 0
      - time: .383333445
        value: {x: -.0528846011, y: .0341330282, z: .822690725, w: -.564993978}
        inSlope: {x: -.12679407, y: -.0478136912, z: 1.53777707, w: 2.25016761}
        outSlope: {x: -.12679407, y: -.0478136912, z: 1.53777707, w: 2.25016761}
        tangentMode: 0
      - time: .400000125
        value: {x: -.0548814386, y: .0333039761, z: .847709596, w: -.526561677}
        inSlope: {x: -.113703445, y: -.0489566438, z: 1.46280408, w: 2.36645222}
        outSlope: {x: -.113703445, y: -.0489566438, z: 1.46280408, w: 2.36645222}
        tangentMode: 0
      - time: .416666806
        value: {x: -.0566747189, y: .0325011387, z: .871450901, w: -.486112177}
        inSlope: {x: -.102483884, y: -.0472152233, z: 1.37924623, w: 2.48406243}
        outSlope: {x: -.102483884, y: -.0472152233, z: 1.37924623, w: 2.48406243}
        tangentMode: 0
      - time: .433333486
        value: {x: -.0582975708, y: .031730134, z: .893684506, w: -.443759531}
        inSlope: {x: -.0932034403, y: -.0452484936, z: 1.28232193, w: 2.59412861}
        outSlope: {x: -.0932034403, y: -.0452484936, z: 1.28232193, w: 2.59412861}
        tangentMode: 0
      - time: .450000167
        value: {x: -.0597815029, y: .0309928544, z: .914195001, w: -.399641156}
        inSlope: {x: -.0857487023, y: -.0432836115, z: 1.17298627, w: 2.69530916}
        outSlope: {x: -.0857487023, y: -.0432836115, z: 1.17298627, w: 2.69530916}
        tangentMode: 0
      - time: .466666847
        value: {x: -.0611558631, y: .0302873459, z: .932784081, w: -.353915811}
        inSlope: {x: -.0799687654, y: -.0415473282, z: 1.05235124, w: 2.78633714}
        outSlope: {x: -.0799687654, y: -.0415473282, z: 1.05235124, w: 2.78633714}
        tangentMode: 0
      - time: .483333528
        value: {x: -.0624471307, y: .0296079423, z: .949273407, w: -.306763172}
        inSlope: {x: -.0756758451, y: -.04025767, z: .921698213, w: 2.86604428}
        outSlope: {x: -.0756758451, y: -.04025767, z: .921698213, w: 2.86604428}
        tangentMode: 0
      - time: .500000179
        value: {x: -.0636783913, y: .0289454237, z: .963507354, w: -.258381009}
        inSlope: {x: -.0726492628, y: -.0396162085, z: .782456517, w: 2.93340683}
        outSlope: {x: -.0726492628, y: -.0396162085, z: .782456517, w: 2.93340683}
        tangentMode: 0
      - time: .51666683
        value: {x: -.0648687705, y: .0282874033, z: .975355268, w: -.208983034}
        inSlope: {x: -.0706360415, y: -.0397989899, z: .636184812, w: 2.98754406}
        outSlope: {x: -.0706360415, y: -.0397989899, z: .636184812, w: 2.98754406}
        tangentMode: 0
      - time: .53333348
        value: {x: -.0660329238, y: .0276187919, z: .984713495, w: -.158796296}
        inSlope: {x: -.0693539456, y: -.0409514457, z: .484543324, w: 3.02775431}
        outSlope: {x: -.0693539456, y: -.0409514457, z: .484543324, w: 3.02775431}
        tangentMode: 0
      - time: .550000131
        value: {x: -.0671805665, y: .0269223563, z: .991506696, w: -.108057983}
        inSlope: {x: -.0685032383, y: -.043181818, z: .329275429, w: 3.05351973}
        outSlope: {x: -.0685032383, y: -.043181818, z: .329275429, w: 3.05351973}
        tangentMode: 0
      - time: .566666782
        value: {x: -.0683163628, y: .0261793993, z: .995689332, w: -.0570123978}
        inSlope: {x: -.0677674189, y: -.04655727, z: .172178313, w: 3.06451416}
        outSlope: {x: -.0677674189, y: -.04655727, z: .172178313, w: 3.06451416}
        tangentMode: 0
      - time: .583333433
        value: {x: -.0694394782, y: .0253704488, z: .997245967, w: -.00590760726}
        inSlope: {x: -.0668226033, y: -.0511032268, z: .0150811821, w: 3.06063771}
        outSlope: {x: -.0668226033, y: -.0511032268, z: .0150811821, w: 3.06063771}
        tangentMode: 0
      - time: .600000083
        value: {x: -.0705437809, y: .0244759601, z: .996192038, w: .0450087637}
        inSlope: {x: -.0653467178, y: -.0567987338, z: -.140190259, w: 3.04196978}
        outSlope: {x: -.0653467178, y: -.0567987338, z: -.140190259, w: 3.04196978}
        tangentMode: 0
      - time: .616666734
        value: {x: -.0716177002, y: .0234771594, z: .992572963, w: .0954912901}
        inSlope: {x: -.0630234778, y: -.0635814369, z: -.291855037, w: 3.00880218}
        outSlope: {x: -.0630234778, y: -.0635814369, z: -.291855037, w: 3.00880218}
        tangentMode: 0
      - time: .633333385
        value: {x: -.0726445615, y: .0223565809, z: .986463547, w: .145302072}
        inSlope: {x: -.0595524758, y: -.071349293, z: -.438189328, w: 2.96164131}
        outSlope: {x: -.0595524758, y: -.071349293, z: -.438189328, w: 2.96164131}
        tangentMode: 0
      - time: .650000036
        value: {x: -.0736027807, y: .0210988522, z: .977966666, w: .194212571}
        inSlope: {x: -.0546569899, y: -.0799627602, z: -.577537358, w: 2.90115547}
        outSlope: {x: -.0546569899, y: -.0799627602, z: -.577537358, w: 2.90115547}
        tangentMode: 0
      - time: .666666687
        value: {x: -.0744664595, y: .0196911581, z: .967212319, w: .242007166}
        inSlope: {x: -.0480866879, y: -.0892513171, z: -.708370268, w: 2.82817078}
        outSlope: {x: -.0480866879, y: -.0892513171, z: -.708370268, w: 2.82817078}
        tangentMode: 0
      - time: .683333337
        value: {x: -.0752056688, y: .0181238111, z: .954354346, w: .288484842}
        inSlope: {x: -.039623864, y: -.0990211591, z: -.829291523, w: 2.74365759}
        outSlope: {x: -.039623864, y: -.0990211591, z: -.829291523, w: 2.74365759}
        tangentMode: 0
      - time: .699999988
        value: {x: -.0757872537, y: .0163904559, z: .939569294, w: .333462328}
        inSlope: {x: -.0290905964, y: -.109064087, z: -.939033329, w: 2.64873576}
        outSlope: {x: -.0290905964, y: -.109064087, z: -.939033329, w: 2.64873576}
        tangentMode: 0
      - time: .716666639
        value: {x: -.0761753544, y: .014488345, z: .923053265, w: .37677595}
        inSlope: {x: -.0163453966, y: -.119162783, z: -1.03650665, w: 2.54458284}
        outSlope: {x: -.0163453966, y: -.119162783, z: -1.03650665, w: 2.54458284}
        tangentMode: 0
      - time: .73333329
        value: {x: -.0763320997, y: .012418367, z: .905019104, w: .418281674}
        inSlope: {x: -.00128902635, y: -.129103228, z: -1.12078536, w: 2.43244481}
        outSlope: {x: -.00128902635, y: -.129103228, z: -1.12078536, w: 2.43244481}
        tangentMode: 0
      - time: .74999994
        value: {x: -.0762183219, y: .0101849083, z: .885693789, w: .45785737}
        inSlope: {x: .0161375254, y: -.138683915, z: -1.19111657, w: 2.31363535}
        outSlope: {x: .0161375254, y: -.138683915, z: -1.19111657, w: 2.31363535}
        tangentMode: 0
      - time: .766666591
        value: {x: -.0757941827, y: .00779557414, z: .865315259, w: .495402783}
        inSlope: {x: .0358323343, y: -.145639449, z: -1.25103354, w: 2.19593382}
        outSlope: {x: .0358323343, y: -.145639449, z: -1.25103354, w: 2.19593382}
        tangentMode: 0
      - time: .783333242
        value: {x: -.0750239119, y: .00533026457, z: .84399271, w: .531055093}
        inSlope: {x: .0566588156, y: -.147254914, z: -1.30722761, w: 2.08914518}
        outSlope: {x: .0566588156, y: -.147254914, z: -1.30722761, w: 2.08914518}
        tangentMode: 0
      - time: .799999893
        value: {x: -.0739055574, y: .00288708135, z: .821741045, w: .565040886}
        inSlope: {x: .0771401823, y: -.144881442, z: -1.36011016, w: 1.99066412}
        outSlope: {x: .0771401823, y: -.144881442, z: -1.36011016, w: 1.99066412}
        tangentMode: 0
      - time: .816666543
        value: {x: -.072452575, y: .000500887632, z: .798655748, w: .5974105}
        inSlope: {x: .0967238992, y: -.140516043, z: -1.40764785, w: 1.8952632}
        outSlope: {x: .0967238992, y: -.140516043, z: -1.40764785, w: 1.8952632}
        tangentMode: 0
      - time: .833333194
        value: {x: -.0706814304, y: -.00179678202, z: .774819493, w: .628216267}
        inSlope: {x: .115239881, y: -.134352982, z: -1.45054173, w: 1.80299878}
        outSlope: {x: .115239881, y: -.134352982, z: -1.45054173, w: 1.80299878}
        tangentMode: 0
      - time: .849999845
        value: {x: -.0686112493, y: -.00397754088, z: .750304401, w: .6575104}
        inSlope: {x: .132544398, y: -.126583338, z: -1.48943388, w: 1.71388483}
        outSlope: {x: .132544398, y: -.126583338, z: -1.48943388, w: 1.71388483}
        tangentMode: 0
      - time: .866666496
        value: {x: -.0662632883, y: -.00601622276, z: .725171745, w: .685345709}
        inSlope: {x: .148519427, y: -.117396325, z: -1.52493739, w: 1.6279093}
        outSlope: {x: .148519427, y: -.117396325, z: -1.52493739, w: 1.6279093}
        tangentMode: 0
      - time: .883333147
        value: {x: -.0636606067, y: -.00789074786, z: .699473202, w: .711773992}
        inSlope: {x: .163065732, y: -.10697341, z: -1.55760312, w: 1.5449717}
        outSlope: {x: .163065732, y: -.10697341, z: -1.55760312, w: 1.5449717}
        tangentMode: 0
      - time: .899999797
        value: {x: -.0608277693, y: -.00958199985, z: .673251688, w: .736844718}
        inSlope: {x: .176102161, y: -.0954922065, z: -1.58795869, w: 1.46497035}
        outSlope: {x: .176102161, y: -.0954922065, z: -1.58795869, w: 1.46497035}
        tangentMode: 0
      - time: .916666448
        value: {x: -.0577905402, y: -.0110738184, z: .646541297, w: .760606289}
        inSlope: {x: .187565386, y: -.0831212848, z: -1.61646342, w: 1.38774765}
        outSlope: {x: .187565386, y: -.0831212848, z: -1.61646342, w: 1.38774765}
        tangentMode: 0
      - time: .933333099
        value: {x: -.054575596, y: -.0123527069, z: .619369626, w: .78310293}
        inSlope: {x: .197405398, y: -.0700240508, z: -1.64356089, w: 1.3131249}
        outSlope: {x: .197405398, y: -.0700240508, z: -1.64356089, w: 1.3131249}
        tangentMode: 0
      - time: .94999975
        value: {x: -.0512103662, y: -.0134079512, z: .591755986, w: .804377079}
        inSlope: {x: .205583125, y: -.0563581809, z: -1.6696409, w: 1.24091268}
        outSlope: {x: .205583125, y: -.0563581809, z: -1.6696409, w: 1.24091268}
        tangentMode: 0
      - time: .9666664
        value: {x: -.0477228314, y: -.0142313112, z: .563714981, w: .824466646}
        inSlope: {x: .212071508, y: -.0422724932, z: -1.69505048, w: 1.17088914}
        outSlope: {x: .212071508, y: -.0422724932, z: -1.69505048, w: 1.17088914}
        tangentMode: 0
      - time: .983333051
        value: {x: -.0441413224, y: -.014817033, z: .535254359, w: .843406677}
        inSlope: {x: .216852337, y: -.0279108994, z: -1.72012019, w: 1.10281098}
        outSlope: {x: .216852337, y: -.0279108994, z: -1.72012019, w: 1.10281098}
        tangentMode: 0
      - time: .999999702
        value: {x: -.0404944271, y: -.0151616735, z: .506377697, w: .861226976}
        inSlope: {x: .219914913, y: -.0134125557, z: -1.74511611, w: 1.03641725}
        outSlope: {x: .219914913, y: -.0134125557, z: -1.74511611, w: 1.03641725}
        tangentMode: 0
      - time: 1.01666641
        value: {x: -.0368108191, y: -.0152641181, z: .477083772, w: .877953947}
        inSlope: {x: .221256465, y: .00108675403, z: -1.77031541, w: .97145772}
        outSlope: {x: .221256465, y: .00108675403, z: -1.77031541, w: .97145772}
        tangentMode: 0
      - time: 1.03333306
        value: {x: -.0331192054, y: -.0151254488, z: .447367132, w: .893608928}
        inSlope: {x: .220879957, y: .0154573619, z: -1.79590964, w: .907633543}
        outSlope: {x: .220879957, y: .0154573619, z: -1.79590964, w: .907633543}
        tangentMode: 0
      - time: 1.04999971
        value: {x: -.0294481609, y: -.0147488732, z: .417220175, w: .90820837}
        inSlope: {x: .218795657, y: .0295707397, z: -1.82209337, w: .844666004}
        outSlope: {x: .218795657, y: .0295707397, z: -1.82209337, w: .844666004}
        tangentMode: 0
      - time: 1.06666636
        value: {x: -.0258260239, y: -.0141397584, z: .386630744, w: .921764433}
        inSlope: {x: .215019047, y: .0433002263, z: -1.84902906, w: .782243729}
        outSlope: {x: .215019047, y: .0433002263, z: -1.84902906, w: .782243729}
        tangentMode: 0
      - time: 1.08333302
        value: {x: -.0222808663, y: -.0133055337, z: .355585933, w: .934283137}
        inSlope: {x: .209571093, y: .0565209016, z: -1.8768177, w: .72004509}
        outSlope: {x: .209571093, y: .0565209016, z: -1.8768177, w: .72004509}
        tangentMode: 0
      - time: 1.09999967
        value: {x: -.0188403279, y: -.0122557301, z: .324070215, w: .945765913}
        inSlope: {x: .202480495, y: .0691060871, z: -1.90557361, w: .657762289}
        outSlope: {x: .202480495, y: .0691060871, z: -1.90557361, w: .657762289}
        tangentMode: 0
      - time: 1.11666632
        value: {x: -.0155315232, y: -.0110019995, z: .292066872, w: .956208527}
        inSlope: {x: .193781674, y: .080929473, z: -1.93536317, w: .595046878}
        outSlope: {x: .193781674, y: .080929473, z: -1.93536317, w: .595046878}
        tangentMode: 0
      - time: 1.13333297
        value: {x: -.0123809446, y: -.00955808349, z: .259558171, w: .965600789}
        inSlope: {x: .183516324, y: .0918632895, z: -1.96620464, w: .531555295}
        outSlope: {x: .183516324, y: .0918632895, z: -1.96620464, w: .531555295}
        tangentMode: 0
      - time: 1.14999962
        value: {x: -.00941431802, y: -.00793989282, z: .226526782, w: .973927021}
        inSlope: {x: .17173484, y: .101776168, z: -1.99810147, w: .466948003}
        outSlope: {x: .17173484, y: .101776168, z: -1.99810147, w: .466948003}
        tangentMode: 0
      - time: 1.16666627
        value: {x: -.00665645581, y: -.00616554776, z: .192954853, w: .981165707}
        inSlope: {x: .15849708, y: .110534415, z: -2.03103995, w: .400856525}
        outSlope: {x: .15849708, y: .110534415, z: -2.03103995, w: .400856525}
        tangentMode: 0
      - time: 1.18333292
        value: {x: -.0041310871, y: -.00425541587, z: .158825517, w: .987288892}
        inSlope: {x: .143873051, y: .118000656, z: -2.06495357, w: .33290717}
        outSlope: {x: .143873051, y: .118000656, z: -2.06495357, w: .33290717}
        tangentMode: 0
      - time: 1.19999957
        value: {x: -.00186069193, y: -.00223219628, z: .124123134, w: .992262602}
        inSlope: {x: .127944857, y: .124034531, z: -2.09974504, w: .262726545}
        outSlope: {x: .127944857, y: .124034531, z: -2.09974504, w: .262726545}
        tangentMode: 0
      - time: 1.2166667
        value: {x: .000133794689, y: -.000120874865, z: .0888330713, w: .996046543}
        inSlope: {x: .119665891, y: .12667577, z: -2.11734509, w: .227030203}
        outSlope: {x: .119665891, y: .12667577, z: -2.11734509, w: .227030203}
        tangentMode: 0
      m_PreInfinity: 2
      m_PostInfinity: 2
    path: 
  m_CompressedRotationCurves: []
  m_PositionCurves: []
  m_ScaleCurves: []
  m_FloatCurves: []
  m_PPtrCurves: []
  m_SampleRate: 60
  m_WrapMode: 0
  m_Bounds:
    m_Center: {x: 0, y: 0, z: 0}
    m_Extent: {x: 0, y: 0, z: 0}
  m_ClipBindingConstant:
    genericBindings:
    - path: 0
      attribute: 2
      script: {fileID: 0}
      classID: 4
      customType: 0
      isPPtrCurve: 0
    pptrCurveMapping: []
  m_AnimationClipSettings:
    serializedVersion: 2
    m_StartTime: 0
    m_StopTime: 1.2166667
    m_OrientationOffsetY: 0
    m_Level: 0
    m_CycleOffset: 0
    m_LoopTime: 1
    m_LoopBlend: 0
    m_LoopBlendOrientation: 0
    m_LoopBlendPositionY: 0
    m_LoopBlendPositionXZ: 0
    m_KeepOriginalOrientation: 0
    m_KeepOriginalPositionY: 1
    m_KeepOriginalPositionXZ: 0
    m_HeightFromFeet: 0
    m_Mirror: 0
  m_EditorCurves:
  - curve:
      serializedVersion: 2
      m_Curve:
      - time: 0
        value: -.000168597471
        inSlope: -.0145504922
        outSlope: -.0145504922
        tangentMode: 0
      - time: .0166666675
        value: -.000411105691
        inSlope: -.024094101
        outSlope: -.024094101
        tangentMode: 0
      - time: .0333333351
        value: -.000971734233
        inSlope: -.0430192798
        outSlope: -.0430192798
        tangentMode: 0
      - time: .0500000045
        value: -.0018450818
        inSlope: -.0615109131
        outSlope: -.0615109131
        tangentMode: 0
      - time: .0666666701
        value: -.00302209798
        inSlope: -.079358086
        outSlope: -.079358086
        tangentMode: 0
      - time: .0833333358
        value: -.0044903513
        inSlope: -.096365571
        outSlope: -.096365571
        tangentMode: 0
      - time: .100000001
        value: -.00623428356
        inSlope: -.112353548
        outSlope: -.112353548
        tangentMode: 0
      - time: .116666667
        value: -.00823546946
        inSlope: -.127157107
        outSlope: -.127157107
        tangentMode: 0
      - time: .13333334
        value: -.0104728546
        inSlope: -.140625909
        outSlope: -.140625909
        tangentMode: 0
      - time: .150000006
        value: -.0129230004
        inSlope: -.15262419
        outSlope: -.15262419
        tangentMode: 0
      - time: .166666672
        value: -.0155603271
        inSlope: -.163030714
        outSlope: -.163030714
        tangentMode: 0
      - time: .183333337
        value: -.018357357
        inSlope: -.171738222
        outSlope: -.171738222
        tangentMode: 0
      - time: .200000003
        value: -.0212849341
        inSlope: -.178653896
        outSlope: -.178653896
        tangentMode: 0
      - time: .216666669
        value: -.0243124869
        inSlope: -.18369998
        outSlope: -.18369998
        tangentMode: 0
      - time: .233333334
        value: -.0274082664
        inSlope: -.186814308
        outSlope: -.186814308
        tangentMode: 0
      - time: .25
        value: -.03053963
        inSlope: -.187950313
        outSlope: -.187950313
        tangentMode: 0
      - time: .266666681
        value: -.033673279
        inSlope: -.187077835
        outSlope: -.187077835
        tangentMode: 0
      - time: .283333361
        value: -.0367755629
        inSlope: -.184185132
        outSlope: -.184185132
        tangentMode: 0
      - time: .300000042
        value: -.0398127884
        inSlope: -.179279596
        outSlope: -.179279596
        tangentMode: 0
      - time: .316666722
        value: -.0427515544
        inSlope: -.172388896
        outSlope: -.172388896
        tangentMode: 0
      - time: .333333403
        value: -.0455590896
        inSlope: -.163562983
        outSlope: -.163562983
        tangentMode: 0
      - time: .350000083
        value: -.0482036583
        inSlope: -.152876168
        outSlope: -.152876168
        tangentMode: 0
      - time: .366666764
        value: -.0506549664
        inSlope: -.140428171
        outSlope: -.140428171
        tangentMode: 0
      - time: .383333445
        value: -.0528846011
        inSlope: -.12679407
        outSlope: -.12679407
        tangentMode: 0
      - time: .400000125
        value: -.0548814386
        inSlope: -.113703445
        outSlope: -.113703445
        tangentMode: 0
      - time: .416666806
        value: -.0566747189
        inSlope: -.102483884
        outSlope: -.102483884
        tangentMode: 0
      - time: .433333486
        value: -.0582975708
        inSlope: -.0932034403
        outSlope: -.0932034403
        tangentMode: 0
      - time: .450000167
        value: -.0597815029
        inSlope: -.0857487023
        outSlope: -.0857487023
        tangentMode: 0
      - time: .466666847
        value: -.0611558631
        inSlope: -.0799687654
        outSlope: -.0799687654
        tangentMode: 0
      - time: .483333528
        value: -.0624471307
        inSlope: -.0756758451
        outSlope: -.0756758451
        tangentMode: 0
      - time: .500000179
        value: -.0636783913
        inSlope: -.0726492628
        outSlope: -.0726492628
        tangentMode: 0
      - time: .51666683
        value: -.0648687705
        inSlope: -.0706360415
        outSlope: -.0706360415
        tangentMode: 0
      - time: .53333348
        value: -.0660329238
        inSlope: -.0693539456
        outSlope: -.0693539456
        tangentMode: 0
      - time: .550000131
        value: -.0671805665
        inSlope: -.0685032383
        outSlope: -.0685032383
        tangentMode: 0
      - time: .566666782
        value: -.0683163628
        inSlope: -.0677674189
        outSlope: -.0677674189
        tangentMode: 0
      - time: .583333433
        value: -.0694394782
        inSlope: -.0668226033
        outSlope: -.0668226033
        tangentMode: 0
      - time: .600000083
        value: -.0705437809
        inSlope: -.0653467178
        outSlope: -.0653467178
        tangentMode: 0
      - time: .616666734
        value: -.0716177002
        inSlope: -.0630234778
        outSlope: -.0630234778
        tangentMode: 0
      - time: .633333385
        value: -.0726445615
        inSlope: -.0595524758
        outSlope: -.0595524758
        tangentMode: 0
      - time: .650000036
        value: -.0736027807
        inSlope: -.0546569899
        outSlope: -.0546569899
        tangentMode: 0
      - time: .666666687
        value: -.0744664595
        inSlope: -.0480866879
        outSlope: -.0480866879
        tangentMode: 0
      - time: .683333337
        value: -.0752056688
        inSlope: -.039623864
        outSlope: -.039623864
        tangentMode: 0
      - time: .699999988
        value: -.0757872537
        inSlope: -.0290905964
        outSlope: -.0290905964
        tangentMode: 0
      - time: .716666639
        value: -.0761753544
        inSlope: -.0163453966
        outSlope: -.0163453966
        tangentMode: 0
      - time: .73333329
        value: -.0763320997
        inSlope: -.00128902635
        outSlope: -.00128902635
        tangentMode: 0
      - time: .74999994
        value: -.0762183219
        inSlope: .0161375254
        outSlope: .0161375254
        tangentMode: 0
      - time: .766666591
        value: -.0757941827
        inSlope: .0358323343
        outSlope: .0358323343
        tangentMode: 0
      - time: .783333242
        value: -.0750239119
        inSlope: .0566588156
        outSlope: .0566588156
        tangentMode: 0
      - time: .799999893
        value: -.0739055574
        inSlope: .0771401823
        outSlope: .0771401823
        tangentMode: 0
      - time: .816666543
        value: -.072452575
        inSlope: .0967238992
        outSlope: .0967238992
        tangentMode: 0
      - time: .833333194
        value: -.0706814304
        inSlope: .115239881
        outSlope: .115239881
        tangentMode: 0
      - time: .849999845
        value: -.0686112493
        inSlope: .132544398
        outSlope: .132544398
        tangentMode: 0
      - time: .866666496
        value: -.0662632883
        inSlope: .148519427
        outSlope: .148519427
        tangentMode: 0
      - time: .883333147
        value: -.0636606067
        inSlope: .163065732
        outSlope: .163065732
        tangentMode: 0
      - time: .899999797
        value: -.0608277693
        inSlope: .176102161
        outSlope: .176102161
        tangentMode: 0
      - time: .916666448
        value: -.0577905402
        inSlope: .187565386
        outSlope: .187565386
        tangentMode: 0
      - time: .933333099
        value: -.054575596
        inSlope: .197405398
        outSlope: .197405398
        tangentMode: 0
      - time: .94999975
        value: -.0512103662
        inSlope: .205583125
        outSlope: .205583125
        tangentMode: 0
      - time: .9666664
        value: -.0477228314
        inSlope: .212071508
        outSlope: .212071508
        tangentMode: 0
      - time: .983333051
        value: -.0441413224
        inSlope: .216852337
        outSlope: .216852337
        tangentMode: 0
      - time: .999999702
        value: -.0404944271
        inSlope: .219914913
        outSlope: .219914913
        tangentMode: 0
      - time: 1.01666641
        value: -.0368108191
        inSlope: .221256465
        outSlope: .221256465
        tangentMode: 0
      - time: 1.03333306
        value: -.0331192054
        inSlope: .220879957
        outSlope: .220879957
        tangentMode: 0
      - time: 1.04999971
        value: -.0294481609
        inSlope: .218795657
        outSlope: .218795657
        tangentMode: 0
      - time: 1.06666636
        value: -.0258260239
        inSlope: .215019047
        outSlope: .215019047
        tangentMode: 0
      - time: 1.08333302
        value: -.0222808663
        inSlope: .209571093
        outSlope: .209571093
        tangentMode: 0
      - time: 1.09999967
        value: -.0188403279
        inSlope: .202480495
        outSlope: .202480495
        tangentMode: 0
      - time: 1.11666632
        value: -.0155315232
        inSlope: .193781674
        outSlope: .193781674
        tangentMode: 0
      - time: 1.13333297
        value: -.0123809446
        inSlope: .183516324
        outSlope: .183516324
        tangentMode: 0
      - time: 1.14999962
        value: -.00941431802
        inSlope: .17173484
        outSlope: .17173484
        tangentMode: 0
      - time: 1.16666627
        value: -.00665645581
        inSlope: .15849708
        outSlope: .15849708
        tangentMode: 0
      - time: 1.18333292
        value: -.0041310871
        inSlope: .143873051
        outSlope: .143873051
        tangentMode: 0
      - time: 1.19999957
        value: -.00186069193
        inSlope: .127944857
        outSlope: .127944857
        tangentMode: 0
      - time: 1.2166667
        value: .000133794689
        inSlope: .119665891
        outSlope: .119665891
        tangentMode: 0
      m_PreInfinity: 2
      m_PostInfinity: 2
    attribute: m_LocalRotation.x
    path: 
    classID: 4
    script: {fileID: 0}
  - curve:
      serializedVersion: 2
      m_Curve:
      - time: 0
        value: .000108747983
        inSlope: .166511327
        outSlope: .166511327
        tangentMode: 0
      - time: .0166666675
        value: .00288393698
        inSlope: .168693334
        outSlope: .168693334
        tangentMode: 0
      - time: .0333333351
        value: .00573185971
        inSlope: .171878785
        outSlope: .171878785
        tangentMode: 0
      - time: .0500000045
        value: .00861323066
        inSlope: .172759801
        outSlope: .172759801
        tangentMode: 0
      - time: .0666666701
        value: .0114905201
        inSlope: .171448171
        outSlope: .171448171
        tangentMode: 0
      - time: .0833333358
        value: .0143281696
        inSlope: .168067619
        outSlope: .168067619
        tangentMode: 0
      - time: .100000001
        value: .0170927737
        inSlope: .162752852
        outSlope: .162752852
        tangentMode: 0
      - time: .116666667
        value: .0197532643
        inSlope: .155648857
        outSlope: .155648857
        tangentMode: 0
      - time: .13333334
        value: .0222810693
        inSlope: .146909654
        outSlope: .146909654
        tangentMode: 0
      - time: .150000006
        value: .0246502534
        inSlope: .136698455
        outSlope: .136698455
        tangentMode: 0
      - time: .166666672
        value: .0268376842
        inSlope: .12518765
        outSlope: .12518765
        tangentMode: 0
      - time: .183333337
        value: .0288231745
        inSlope: .112557292
        outSlope: .112557292
        tangentMode: 0
      - time: .200000003
        value: .0305895936
        inSlope: .098995313
        outSlope: .098995313
        tangentMode: 0
      - time: .216666669
        value: .0321230181
        inSlope: .0846984088
        outSlope: .0846984088
        tangentMode: 0
      - time: .233333334
        value: .0334128737
        inSlope: .0698711053
        outSlope: .0698711053
        tangentMode: 0
      - time: .25
        value: .0344520546
        inSlope: .0547255389
        outSlope: .0547255389
        tangentMode: 0
      - time: .266666681
        value: .035237059
        inSlope: .0394816361
        outSlope: .0394816361
        tangentMode: 0
      - time: .283333361
        value: .0357681103
        inSlope: .0243668426
        outSlope: .0243668426
        tangentMode: 0
      - time: .300000042
        value: .0360492878
        inSlope: .0096152639
        outSlope: .0096152639
        tangentMode: 0
      - time: .316666722
        value: .0360886194
        inSlope: -.00453114137
        outSlope: -.00453114137
        tangentMode: 0
      - time: .333333403
        value: .0358982496
        inSlope: -.0178252757
        outSlope: -.0178252757
        tangentMode: 0
      - time: .350000083
        value: .035494443
        inSlope: -.0300144516
        outSlope: -.0300144516
        tangentMode: 0
      - time: .366666764
        value: .034897767
        inSlope: -.0408424102
        outSlope: -.0408424102
        tangentMode: 0
      - time: .383333445
        value: .0341330282
        inSlope: -.0478136912
        outSlope: -.0478136912
        tangentMode: 0
      - time: .400000125
        value: .0333039761
        inSlope: -.0489566438
        outSlope: -.0489566438
        tangentMode: 0
      - time: .416666806
        value: .0325011387
        inSlope: -.0472152233
        outSlope: -.0472152233
        tangentMode: 0
      - time: .433333486
        value: .031730134
        inSlope: -.0452484936
        outSlope: -.0452484936
        tangentMode: 0
      - time: .450000167
        value: .0309928544
        inSlope: -.0432836115
        outSlope: -.0432836115
        tangentMode: 0
      - time: .466666847
        value: .0302873459
        inSlope: -.0415473282
        outSlope: -.0415473282
        tangentMode: 0
      - time: .483333528
        value: .0296079423
        inSlope: -.04025767
        outSlope: -.04025767
        tangentMode: 0
      - time: .500000179
        value: .0289454237
        inSlope: -.0396162085
        outSlope: -.0396162085
        tangentMode: 0
      - time: .51666683
        value: .0282874033
        inSlope: -.0397989899
        outSlope: -.0397989899
        tangentMode: 0
      - time: .53333348
        value: .0276187919
        inSlope: -.0409514457
        outSlope: -.0409514457
        tangentMode: 0
      - time: .550000131
        value: .0269223563
        inSlope: -.043181818
        outSlope: -.043181818
        tangentMode: 0
      - time: .566666782
        value: .0261793993
        inSlope: -.04655727
        outSlope: -.04655727
        tangentMode: 0
      - time: .583333433
        value: .0253704488
        inSlope: -.0511032268
        outSlope: -.0511032268
        tangentMode: 0
      - time: .600000083
        value: .0244759601
        inSlope: -.0567987338
        outSlope: -.0567987338
        tangentMode: 0
      - time: .616666734
        value: .0234771594
        inSlope: -.0635814369
        outSlope: -.0635814369
        tangentMode: 0
      - time: .633333385
        value: .0223565809
        inSlope: -.071349293
        outSlope: -.071349293
        tangentMode: 0
      - time: .650000036
        value: .0210988522
        inSlope: -.0799627602
        outSlope: -.0799627602
        tangentMode: 0
      - time: .666666687
        value: .0196911581
        inSlope: -.0892513171
        outSlope: -.0892513171
        tangentMode: 0
      - time: .683333337
        value: .0181238111
        inSlope: -.0990211591
        outSlope: -.0990211591
        tangentMode: 0
      - time: .699999988
        value: .0163904559
        inSlope: -.109064087
        outSlope: -.109064087
        tangentMode: 0
      - time: .716666639
        value: .014488345
        inSlope: -.119162783
        outSlope: -.119162783
        tangentMode: 0
      - time: .73333329
        value: .012418367
        inSlope: -.129103228
        outSlope: -.129103228
        tangentMode: 0
      - time: .74999994
        value: .0101849083
        inSlope: -.138683915
        outSlope: -.138683915
        tangentMode: 0
      - time: .766666591
        value: .00779557414
        inSlope: -.145639449
        outSlope: -.145639449
        tangentMode: 0
      - time: .783333242
        value: .00533026457
        inSlope: -.147254914
        outSlope: -.147254914
        tangentMode: 0
      - time: .799999893
        value: .00288708135
        inSlope: -.144881442
        outSlope: -.144881442
        tangentMode: 0
      - time: .816666543
        value: .000500887632
        inSlope: -.140516043
        outSlope: -.140516043
        tangentMode: 0
      - time: .833333194
        value: -.00179678202
        inSlope: -.134352982
        outSlope: -.134352982
        tangentMode: 0
      - time: .849999845
        value: -.00397754088
        inSlope: -.126583338
        outSlope: -.126583338
        tangentMode: 0
      - time: .866666496
        value: -.00601622276
        inSlope: -.117396325
        outSlope: -.117396325
        tangentMode: 0
      - time: .883333147
        value: -.00789074786
        inSlope: -.10697341
        outSlope: -.10697341
        tangentMode: 0
      - time: .899999797
        value: -.00958199985
        inSlope: -.0954922065
        outSlope: -.0954922065
        tangentMode: 0
      - time: .916666448
        value: -.0110738184
        inSlope: -.0831212848
        outSlope: -.0831212848
        tangentMode: 0
      - time: .933333099
        value: -.0123527069
        inSlope: -.0700240508
        outSlope: -.0700240508
        tangentMode: 0
      - time: .94999975
        value: -.0134079512
        inSlope: -.0563581809
        outSlope: -.0563581809
        tangentMode: 0
      - time: .9666664
        value: -.0142313112
        inSlope: -.0422724932
        outSlope: -.0422724932
        tangentMode: 0
      - time: .983333051
        value: -.014817033
        inSlope: -.0279108994
        outSlope: -.0279108994
        tangentMode: 0
      - time: .999999702
        value: -.0151616735
        inSlope: -.0134125557
        outSlope: -.0134125557
        tangentMode: 0
      - time: 1.01666641
        value: -.0152641181
        inSlope: .00108675403
        outSlope: .00108675403
        tangentMode: 0
      - time: 1.03333306
        value: -.0151254488
        inSlope: .0154573619
        outSlope: .0154573619
        tangentMode: 0
      - time: 1.04999971
        value: -.0147488732
        inSlope: .0295707397
        outSlope: .0295707397
        tangentMode: 0
      - time: 1.06666636
        value: -.0141397584
        inSlope: .0433002263
        outSlope: .0433002263
        tangentMode: 0
      - time: 1.08333302
        value: -.0133055337
        inSlope: .0565209016
        outSlope: .0565209016
        tangentMode: 0
      - time: 1.09999967
        value: -.0122557301
        inSlope: .0691060871
        outSlope: .0691060871
        tangentMode: 0
      - time: 1.11666632
        value: -.0110019995
        inSlope: .080929473
        outSlope: .080929473
        tangentMode: 0
      - time: 1.13333297
        value: -.00955808349
        inSlope: .0918632895
        outSlope: .0918632895
        tangentMode: 0
      - time: 1.14999962
        value: -.00793989282
        inSlope: .101776168
        outSlope: .101776168
        tangentMode: 0
      - time: 1.16666627
        value: -.00616554776
        inSlope: .110534415
        outSlope: .110534415
        tangentMode: 0
      - time: 1.18333292
        value: -.00425541587
        inSlope: .118000656
        outSlope: .118000656
        tangentMode: 0
      - time: 1.19999957
        value: -.00223219628
        inSlope: .124034531
        outSlope: .124034531
        tangentMode: 0
      - time: 1.2166667
        value: -.000120874865
        inSlope: .12667577
        outSlope: .12667577
        tangentMode: 0
      m_PreInfinity: 2
      m_PostInfinity: 2
    attribute: m_LocalRotation.y
    path: 
    classID: 4
    script: {fileID: 0}
  - curve:
      serializedVersion: 2
      m_Curve:
      - time: 0
        value: .00262159458
        inSlope: 2.51209974
        outSlope: 2.51209974
        tangentMode: 0
      - time: .0166666675
        value: .0444899276
        inSlope: 2.5022068
        outSlope: 2.5022068
        tangentMode: 0
      - time: .0333333351
        value: .0860284939
        inSlope: 2.48138714
        outSlope: 2.48138714
        tangentMode: 0
      - time: .0500000045
        value: .127202839
        inSlope: 2.45855904
        outSlope: 2.45855904
        tangentMode: 0
      - time: .0666666701
        value: .167980462
        inSlope: 2.43382788
        outSlope: 2.43382788
        tangentMode: 0
      - time: .0833333358
        value: .208330423
        inSlope: 2.40726709
        outSlope: 2.40726709
        tangentMode: 0
      - time: .100000001
        value: .248222694
        inSlope: 2.37892103
        outSlope: 2.37892103
        tangentMode: 0
      - time: .116666667
        value: .287627786
        inSlope: 2.34880972
        outSlope: 2.34880972
        tangentMode: 0
      - time: .13333334
        value: .32651636
        inSlope: 2.31692314
        outSlope: 2.31692314
        tangentMode: 0
      - time: .150000006
        value: .364858568
        inSlope: 2.28322077
        outSlope: 2.28322077
        tangentMode: 0
      - time: .166666672
        value: .402623713
        inSlope: 2.24764299
        outSlope: 2.24764299
        tangentMode: 0
      - time: .183333337
        value: .439779997
        inSlope: 2.21009588
        outSlope: 2.21009588
        tangentMode: 0
      - time: .200000003
        value: .476293564
        inSlope: 2.17045259
        outSlope: 2.17045259
        tangentMode: 0
      - time: .216666669
        value: .512128413
        inSlope: 2.12856913
        outSlope: 2.12856913
        tangentMode: 0
      - time: .233333334
        value: .54724586
        inSlope: 2.08427334
        outSlope: 2.08427334
        tangentMode: 0
      - time: .25
        value: .581604183
        inSlope: 2.03735352
        outSlope: 2.03735352
        tangentMode: 0
      - time: .266666681
        value: .615157664
        inSlope: 1.98757422
        outSlope: 1.98757422
        tangentMode: 0
      - time: .283333361
        value: .647856712
        inSlope: 1.93468118
        outSlope: 1.93468118
        tangentMode: 0
      - time: .300000042
        value: .679647088
        inSlope: 1.8783834
        outSlope: 1.8783834
        tangentMode: 0
      - time: .316666722
        value: .710469544
        inSlope: 1.81836092
        outSlope: 1.81836092
        tangentMode: 0
      - time: .333333403
        value: .740259171
        inSlope: 1.75426698
        outSlope: 1.75426698
        tangentMode: 0
      - time: .350000083
        value: .768945158
        inSlope: 1.68573296
        outSlope: 1.68573296
        tangentMode: 0
      - time: .366666764
        value: .796450317
        inSlope: 1.61236572
        outSlope: 1.61236572
        tangentMode: 0
      - time: .383333445
        value: .822690725
        inSlope: 1.53777707
        outSlope: 1.53777707
        tangentMode: 0
      - time: .400000125
        value: .847709596
        inSlope: 1.46280408
        outSlope: 1.46280408
        tangentMode: 0
      - time: .416666806
        value: .871450901
        inSlope: 1.37924623
        outSlope: 1.37924623
        tangentMode: 0
      - time: .433333486
        value: .893684506
        inSlope: 1.28232193
        outSlope: 1.28232193
        tangentMode: 0
      - time: .450000167
        value: .914195001
        inSlope: 1.17298627
        outSlope: 1.17298627
        tangentMode: 0
      - time: .466666847
        value: .932784081
        inSlope: 1.05235124
        outSlope: 1.05235124
        tangentMode: 0
      - time: .483333528
        value: .949273407
        inSlope: .921698213
        outSlope: .921698213
        tangentMode: 0
      - time: .500000179
        value: .963507354
        inSlope: .782456517
        outSlope: .782456517
        tangentMode: 0
      - time: .51666683
        value: .975355268
        inSlope: .636184812
        outSlope: .636184812
        tangentMode: 0
      - time: .53333348
        value: .984713495
        inSlope: .484543324
        outSlope: .484543324
        tangentMode: 0
      - time: .550000131
        value: .991506696
        inSlope: .329275429
        outSlope: .329275429
        tangentMode: 0
      - time: .566666782
        value: .995689332
        inSlope: .172178313
        outSlope: .172178313
        tangentMode: 0
      - time: .583333433
        value: .997245967
        inSlope: .0150811821
        outSlope: .0150811821
        tangentMode: 0
      - time: .600000083
        value: .996192038
        inSlope: -.140190259
        outSlope: -.140190259
        tangentMode: 0
      - time: .616666734
        value: .992572963
        inSlope: -.291855037
        outSlope: -.291855037
        tangentMode: 0
      - time: .633333385
        value: .986463547
        inSlope: -.438189328
        outSlope: -.438189328
        tangentMode: 0
      - time: .650000036
        value: .977966666
        inSlope: -.577537358
        outSlope: -.577537358
        tangentMode: 0
      - time: .666666687
        value: .967212319
        inSlope: -.708370268
        outSlope: -.708370268
        tangentMode: 0
      - time: .683333337
        value: .954354346
        inSlope: -.829291523
        outSlope: -.829291523
        tangentMode: 0
      - time: .699999988
        value: .939569294
        inSlope: -.939033329
        outSlope: -.939033329
        tangentMode: 0
      - time: .716666639
        value: .923053265
        inSlope: -1.03650665
        outSlope: -1.03650665
        tangentMode: 0
      - time: .73333329
        value: .905019104
        inSlope: -1.12078536
        outSlope: -1.12078536
        tangentMode: 0
      - time: .74999994
        value: .885693789
        inSlope: -1.19111657
        outSlope: -1.19111657
        tangentMode: 0
      - time: .766666591
        value: .865315259
        inSlope: -1.25103354
        outSlope: -1.25103354
        tangentMode: 0
      - time: .783333242
        value: .84399271
        inSlope: -1.30722761
        outSlope: -1.30722761
        tangentMode: 0
      - time: .799999893
        value: .821741045
        inSlope: -1.36011016
        outSlope: -1.36011016
        tangentMode: 0
      - time: .816666543
        value: .798655748
        inSlope: -1.40764785
        outSlope: -1.40764785
        tangentMode: 0
      - time: .833333194
        value: .774819493
        inSlope: -1.45054173
        outSlope: -1.45054173
        tangentMode: 0
      - time: .849999845
        value: .750304401
        inSlope: -1.48943388
        outSlope: -1.48943388
        tangentMode: 0
      - time: .866666496
        value: .725171745
        inSlope: -1.52493739
        outSlope: -1.52493739
        tangentMode: 0
      - time: .883333147
        value: .699473202
        inSlope: -1.55760312
        outSlope: -1.55760312
        tangentMode: 0
      - time: .899999797
        value: .673251688
        inSlope: -1.58795869
        outSlope: -1.58795869
        tangentMode: 0
      - time: .916666448
        value: .646541297
        inSlope: -1.61646342
        outSlope: -1.61646342
        tangentMode: 0
      - time: .933333099
        value: .619369626
        inSlope: -1.64356089
        outSlope: -1.64356089
        tangentMode: 0
      - time: .94999975
        value: .591755986
        inSlope: -1.6696409
        outSlope: -1.6696409
        tangentMode: 0
      - time: .9666664
        value: .563714981
        inSlope: -1.69505048
        outSlope: -1.69505048
        tangentMode: 0
      - time: .983333051
        value: .535254359
        inSlope: -1.72012019
        outSlope: -1.72012019
        tangentMode: 0
      - time: .999999702
        value: .506377697
        inSlope: -1.74511611
        outSlope: -1.74511611
        tangentMode: 0
      - time: 1.01666641
        value: .477083772
        inSlope: -1.77031541
        outSlope: -1.77031541
        tangentMode: 0
      - time: 1.03333306
        value: .447367132
        inSlope: -1.79590964
        outSlope: -1.79590964
        tangentMode: 0
      - time: 1.04999971
        value: .417220175
        inSlope: -1.82209337
        outSlope: -1.82209337
        tangentMode: 0
      - time: 1.06666636
        value: .386630744
        inSlope: -1.84902906
        outSlope: -1.84902906
        tangentMode: 0
      - time: 1.08333302
        value: .355585933
        inSlope: -1.8768177
        outSlope: -1.8768177
        tangentMode: 0
      - time: 1.09999967
        value: .324070215
        inSlope: -1.90557361
        outSlope: -1.90557361
        tangentMode: 0
      - time: 1.11666632
        value: .292066872
        inSlope: -1.93536317
        outSlope: -1.93536317
        tangentMode: 0
      - time: 1.13333297
        value: .259558171
        inSlope: -1.96620464
        outSlope: -1.96620464
        tangentMode: 0
      - time: 1.14999962
        value: .226526782
        inSlope: -1.99810147
        outSlope: -1.99810147
        tangentMode: 0
      - time: 1.16666627
        value: .192954853
        inSlope: -2.03103995
        outSlope: -2.03103995
        tangentMode: 0
      - time: 1.18333292
        value: .158825517
        inSlope: -2.06495357
        outSlope: -2.06495357
        tangentMode: 0
      - time: 1.19999957
        value: .124123134
        inSlope: -2.09974504
        outSlope: -2.09974504
        tangentMode: 0
      - time: 1.2166667
        value: .0888330713
        inSlope: -2.11734509
        outSlope: -2.11734509
        tangentMode: 0
      m_PreInfinity: 2
      m_PostInfinity: 2
    attribute: m_LocalRotation.z
    path: 
    classID: 4
    script: {fileID: 0}
  - curve:
      serializedVersion: 2
      m_Curve:
      - time: 0
        value: -.999996543
        inSlope: .0594592057
        outSlope: .0594592057
        tangentMode: 0
      - time: .0166666675
        value: -.999005556
        inSlope: .111626379
        outSlope: .111626379
        tangentMode: 0
      - time: .0333333351
        value: -.996275663
        inSlope: .215038031
        outSlope: .215038031
        tangentMode: 0
      - time: .0500000045
        value: -.991837621
        inSlope: .316708088
        outSlope: .316708088
        tangentMode: 0
      - time: .0666666701
        value: -.985718727
        inSlope: .416833192
        outSlope: .416833192
        tangentMode: 0
      - time: .0833333358
        value: -.977943182
        inSlope: .51559931
        outSlope: .51559931
        tangentMode: 0
      - time: .100000001
        value: -.968532085
        inSlope: .613203108
        outSlope: .613203108
        tangentMode: 0
      - time: .116666667
        value: -.95750308
        inSlope: .709837556
        outSlope: .709837556
        tangentMode: 0
      - time: .13333334
        value: -.94487083
        inSlope: .805683613
        outSlope: .805683613
        tangentMode: 0
      - time: .150000006
        value: -.930646956
        inSlope: .90093261
        outSlope: .90093261
        tangentMode: 0
      - time: .166666672
        value: -.914839745
        inSlope: .995754123
        outSlope: .995754123
        tangentMode: 0
      - time: .183333337
        value: -.897455156
        inSlope: 1.09030378
        outSlope: 1.09030378
        tangentMode: 0
      - time: .200000003
        value: -.878496289
        inSlope: 1.18474793
        outSlope: 1.18474793
        tangentMode: 0
      - time: .216666669
        value: -.857963562
        inSlope: 1.27922428
        outSlope: 1.27922428
        tangentMode: 0
      - time: .233333334
        value: -.835855484
        inSlope: 1.37386513
        outSlope: 1.37386513
        tangentMode: 0
      - time: .25
        value: -.812168062
        inSlope: 1.46878064
        outSlope: 1.46878064
        tangentMode: 0
      - time: .266666681
        value: -.78689611
        inSlope: 1.56405735
        outSlope: 1.56405735
        tangentMode: 0
      - time: .283333361
        value: -.760032773
        inSlope: 1.65977097
        outSlope: 1.65977097
        tangentMode: 0
      - time: .300000042
        value: -.731570363
        inSlope: 1.75596738
        outSlope: 1.75596738
        tangentMode: 0
      - time: .316666722
        value: -.701500475
        inSlope: 1.85266101
        outSlope: 1.85266101
        tangentMode: 0
      - time: .333333403
        value: -.669814944
        inSlope: 1.94983196
        outSlope: 1.94983196
        tangentMode: 0
      - time: .350000083
        value: -.636506021
        inSlope: 2.0474267
        outSlope: 2.0474267
        tangentMode: 0
      - time: .366666764
        value: -.601567328
        inSlope: 2.14535952
        outSlope: 2.14535952
        tangentMode: 0
      - time: .383333445
        value: -.564993978
        inSlope: 2.25016761
        outSlope: 2.25016761
        tangentMode: 0
      - time: .400000125
        value: -.526561677
        inSlope: 2.36645222
        outSlope: 2.36645222
        tangentMode: 0
      - time: .416666806
        value: -.486112177
        inSlope: 2.48406243
        outSlope: 2.48406243
        tangentMode: 0
      - time: .433333486
        value: -.443759531
        inSlope: 2.59412861
        outSlope: 2.59412861
        tangentMode: 0
      - time: .450000167
        value: -.399641156
        inSlope: 2.69530916
        outSlope: 2.69530916
        tangentMode: 0
      - time: .466666847
        value: -.353915811
        inSlope: 2.78633714
        outSlope: 2.78633714
        tangentMode: 0
      - time: .483333528
        value: -.306763172
        inSlope: 2.86604428
        outSlope: 2.86604428
        tangentMode: 0
      - time: .500000179
        value: -.258381009
        inSlope: 2.93340683
        outSlope: 2.93340683
        tangentMode: 0
      - time: .51666683
        value: -.208983034
        inSlope: 2.98754406
        outSlope: 2.98754406
        tangentMode: 0
      - time: .53333348
        value: -.158796296
        inSlope: 3.02775431
        outSlope: 3.02775431
        tangentMode: 0
      - time: .550000131
        value: -.108057983
        inSlope: 3.05351973
        outSlope: 3.05351973
        tangentMode: 0
      - time: .566666782
        value: -.0570123978
        inSlope: 3.06451416
        outSlope: 3.06451416
        tangentMode: 0
      - time: .583333433
        value: -.00590760726
        inSlope: 3.06063771
        outSlope: 3.06063771
        tangentMode: 0
      - time: .600000083
        value: .0450087637
        inSlope: 3.04196978
        outSlope: 3.04196978
        tangentMode: 0
      - time: .616666734
        value: .0954912901
        inSlope: 3.00880218
        outSlope: 3.00880218
        tangentMode: 0
      - time: .633333385
        value: .145302072
        inSlope: 2.96164131
        outSlope: 2.96164131
        tangentMode: 0
      - time: .650000036
        value: .194212571
        inSlope: 2.90115547
        outSlope: 2.90115547
        tangentMode: 0
      - time: .666666687
        value: .242007166
        inSlope: 2.82817078
        outSlope: 2.82817078
        tangentMode: 0
      - time: .683333337
        value: .288484842
        inSlope: 2.74365759
        outSlope: 2.74365759
        tangentMode: 0
      - time: .699999988
        value: .333462328
        inSlope: 2.64873576
        outSlope: 2.64873576
        tangentMode: 0
      - time: .716666639
        value: .37677595
        inSlope: 2.54458284
        outSlope: 2.54458284
        tangentMode: 0
      - time: .73333329
        value: .418281674
        inSlope: 2.43244481
        outSlope: 2.43244481
        tangentMode: 0
      - time: .74999994
        value: .45785737
        inSlope: 2.31363535
        outSlope: 2.31363535
        tangentMode: 0
      - time: .766666591
        value: .495402783
        inSlope: 2.19593382
        outSlope: 2.19593382
        tangentMode: 0
      - time: .783333242
        value: .531055093
        inSlope: 2.08914518
        outSlope: 2.08914518
        tangentMode: 0
      - time: .799999893
        value: .565040886
        inSlope: 1.99066412
        outSlope: 1.99066412
        tangentMode: 0
      - time: .816666543
        value: .5974105
        inSlope: 1.8952632
        outSlope: 1.8952632
        tangentMode: 0
      - time: .833333194
        value: .628216267
        inSlope: 1.80299878
        outSlope: 1.80299878
        tangentMode: 0
      - time: .849999845
        value: .6575104
        inSlope: 1.71388483
        outSlope: 1.71388483
        tangentMode: 0
      - time: .866666496
        value: .685345709
        inSlope: 1.6279093
        outSlope: 1.6279093
        tangentMode: 0
      - time: .883333147
        value: .711773992
        inSlope: 1.5449717
        outSlope: 1.5449717
        tangentMode: 0
      - time: .899999797
        value: .736844718
        inSlope: 1.46497035
        outSlope: 1.46497035
        tangentMode: 0
      - time: .916666448
        value: .760606289
        inSlope: 1.38774765
        outSlope: 1.38774765
        tangentMode: 0
      - time: .933333099
        value: .78310293
        inSlope: 1.3131249
        outSlope: 1.3131249
        tangentMode: 0
      - time: .94999975
        value: .804377079
        inSlope: 1.24091268
        outSlope: 1.24091268
        tangentMode: 0
      - time: .9666664
        value: .824466646
        inSlope: 1.17088914
        outSlope: 1.17088914
        tangentMode: 0
      - time: .983333051
        value: .843406677
        inSlope: 1.10281098
        outSlope: 1.10281098
        tangentMode: 0
      - time: .999999702
        value: .861226976
        inSlope: 1.03641725
        outSlope: 1.03641725
        tangentMode: 0
      - time: 1.01666641
        value: .877953947
        inSlope: .97145772
        outSlope: .97145772
        tangentMode: 0
      - time: 1.03333306
        value: .893608928
        inSlope: .907633543
        outSlope: .907633543
        tangentMode: 0
      - time: 1.04999971
        value: .90820837
        inSlope: .844666004
        outSlope: .844666004
        tangentMode: 0
      - time: 1.06666636
        value: .921764433
        inSlope: .782243729
        outSlope: .782243729
        tangentMode: 0
      - time: 1.08333302
        value: .934283137
        inSlope: .72004509
        outSlope: .72004509
        tangentMode: 0
      - time: 1.09999967
        value: .945765913
        inSlope: .657762289
        outSlope: .657762289
        tangentMode: 0
      - time: 1.11666632
        value: .956208527
        inSlope: .595046878
        outSlope: .595046878
        tangentMode: 0
      - time: 1.13333297
        value: .965600789
        inSlope: .531555295
        outSlope: .531555295
        tangentMode: 0
      - time: 1.14999962
        value: .973927021
        inSlope: .466948003
        outSlope: .466948003
        tangentMode: 0
      - time: 1.16666627
        value: .981165707
        inSlope: .400856525
        outSlope: .400856525
        tangentMode: 0
      - time: 1.18333292
        value: .987288892
        inSlope: .33290717
        outSlope: .33290717
        tangentMode: 0
      - time: 1.19999957
        value: .992262602
        inSlope: .262726545
        outSlope: .262726545
        tangentMode: 0
      - time: 1.2166667
        value: .996046543
        inSlope: .227030203
        outSlope: .227030203
        tangentMode: 0
      m_PreInfinity: 2
      m_PostInfinity: 2
    attribute: m_LocalRotation.w
    path: 
    classID: 4
    script: {fileID: 0}
  m_EulerEditorCurves:
  - curve:
      serializedVersion: 2
      m_Curve:
      - time: 0
        value: .0192871094
        inSlope: .487339199
        outSlope: .487339199
        tangentMode: 10
      - time: .383333325
        value: .206100464
        inSlope: -6.65439129
        outSlope: -6.65439129
        tangentMode: 10
      - time: .766666651
        value: -5.08241272
        inSlope: -1.23260117
        outSlope: -1.23260117
        tangentMode: 10
      - time: 1.2166667
        value: .0165015757
        inSlope: 11.3309193
        outSlope: 11.3309193
        tangentMode: 10
      m_PreInfinity: 2
      m_PostInfinity: 2
    attribute: localEulerAnglesBaked.x
    path: 
    classID: 4
    script: {fileID: 0}
  - curve:
      serializedVersion: 2
      m_Curve:
      - time: 0
        value: -.012512207
        inSlope: -18.7880554
        outSlope: -18.7880554
        tangentMode: 10
      - time: .383333325
        value: -7.21459961
        inSlope: -9.26967525
        outSlope: -9.26967525
        tangentMode: 10
      - time: .766666651
        value: -7.1192627
        inSlope: 8.02082729
        outSlope: 8.02082729
        tangentMode: 10
      - time: 1.2166667
        value: -.0124345124
        inSlope: 15.7929497
        outSlope: 15.7929497
        tangentMode: 10
      m_PreInfinity: 2
      m_PostInfinity: 2
    attribute: localEulerAnglesBaked.y
    path: 
    classID: 4
    script: {fileID: 0}
  - curve:
      serializedVersion: 2
      m_Curve:
      - time: 0
        value: -.300415039
        inSlope: -288.92038
        outSlope: -288.92038
        tangentMode: 10
      - time: .383333325
        value: -111.053223
        inSlope: -311.695374
        outSlope: -311.695374
        tangentMode: 10
      - time: .766666651
        value: -239.266846
        inSlope: -290.057556
        outSlope: -290.057556
        tangentMode: 10
      - time: 1.2166667
        value: -349.807007
        inSlope: -245.644775
        outSlope: -245.644775
        tangentMode: 10
      m_PreInfinity: 2
      m_PostInfinity: 2
    attribute: localEulerAnglesBaked.z
    path: 
    classID: 4
    script: {fileID: 0}
  m_HasGenericRootTransform: 1
  m_HasMotionFloatCurves: 0
  m_GenerateMotionCurves: 0
  m_Events: []
