%YAML 1.1
%TAG !u! tag:unity3d.com,2011:
--- !u!74 &7400000
AnimationClip:
  m_ObjectHideFlags: 0
  m_PrefabParentObject: {fileID: 0}
  m_PrefabInternal: {fileID: 0}
  m_Name: fire Ninja
  serializedVersion: 6
  m_Legacy: 0
  m_Compressed: 0
  m_UseHighQualityCurve: 1
  m_RotationCurves:
  - curve:
      serializedVersion: 2
      m_Curve:
      - time: 0
        value: {x: 0, y: 0, z: -.421460718, w: .906846642}
        inSlope: {x: 0, y: 0, z: 0, w: 0}
        outSlope: {x: 0, y: 0, z: 0, w: 0}
        tangentMode: 0
      m_PreInfinity: 2
      m_PostInfinity: 2
    path: Corp/Pied Gauche
  - curve:
      serializedVersion: 2
      m_Curve:
      - time: 0
        value: {x: 0, y: 0, z: .18606852, w: .982536793}
        inSlope: {x: 0, y: 0, z: 0, w: 0}
        outSlope: {x: 0, y: 0, z: 0, w: 0}
        tangentMode: 0
      m_PreInfinity: 2
      m_PostInfinity: 2
    path: Corp/Pied D
  - curve:
      serializedVersion: 2
      m_Curve:
      - time: 0
        value: {x: 0, y: 0, z: .334745497, w: .942308605}
        inSlope: {x: 0, y: 0, z: -.0061887498, w: .00219583511}
        outSlope: {x: 0, y: 0, z: -.0061887498, w: .00219583511}
        tangentMode: 0
      - time: .0166666675
        value: {x: 0, y: 0, z: .334642351, w: .942345202}
        inSlope: {x: 0, y: 0, z: .0486597382, w: -.0173342209}
        outSlope: {x: 0, y: 0, z: .0486597382, w: -.0173342209}
        tangentMode: 0
      - time: .0333333351
        value: {x: 0, y: 0, z: .336367488, w: .941730797}
        inSlope: {x: 0, y: 0, z: .0385057926, w: -.0137025109}
        outSlope: {x: 0, y: 0, z: .0385057926, w: -.0137025109}
        tangentMode: 0
      - time: .0500000045
        value: {x: 0, y: 0, z: .335925877, w: .941888452}
        inSlope: {x: 0, y: 0, z: -.211571768, w: .0746780708}
        outSlope: {x: 0, y: 0, z: -.211571768, w: .0746780708}
        tangentMode: 0
      - time: .0666666701
        value: {x: 0, y: 0, z: .329315096, w: .944220066}
        inSlope: {x: 0, y: 0, z: -.70384568, w: .241230756}
        outSlope: {x: 0, y: 0, z: -.70384568, w: .241230756}
        tangentMode: 0
      - time: .0833333358
        value: {x: 0, y: 0, z: .312464356, w: .949929476}
        inSlope: {x: 0, y: 0, z: -1.44555259, w: .463489354}
        outSlope: {x: 0, y: 0, z: -1.44555259, w: .463489354}
        tangentMode: 0
      - time: .100000001
        value: {x: 0, y: 0, z: .281130016, w: .959669709}
        inSlope: {x: 0, y: 0, z: -2.45013452, w: .692201316}
        outSlope: {x: 0, y: 0, z: -2.45013452, w: .692201316}
        tangentMode: 0
      - time: .116666667
        value: {x: 0, y: 0, z: .230793208, w: .973002851}
        inSlope: {x: 0, y: 0, z: -3.73405313, w: .839479446}
        outSlope: {x: 0, y: 0, z: -3.73405313, w: .839479446}
        tangentMode: 0
      - time: .13333334
        value: {x: 0, y: 0, z: .156661555, w: .987652361}
        inSlope: {x: 0, y: 0, z: -5.30515957, w: .766215801}
        outSlope: {x: 0, y: 0, z: -5.30515957, w: .766215801}
        tangentMode: 0
      - time: .150000006
        value: {x: 0, y: 0, z: .053954538, w: .998543382}
        inSlope: {x: 0, y: 0, z: -7.13719416, w: .271253616}
        outSlope: {x: 0, y: 0, z: -7.13719416, w: .271253616}
        tangentMode: 0
      - time: .166666672
        value: {x: 0, y: 0, z: -.0812449008, w: .996694148}
        inSlope: {x: 0, y: 0, z: -3.82633781, w: -.0376439095}
        outSlope: {x: 0, y: 0, z: -3.82633781, w: -.0376439095}
        tangentMode: 0
      - time: .183333337
        value: {x: 0, y: 0, z: -.0735900477, w: .997288585}
        inSlope: {x: 0, y: 0, z: .886775374, w: .0590783432}
        outSlope: {x: 0, y: 0, z: .886775374, w: .0590783432}
        tangentMode: 0
      - time: .200000003
        value: {x: 0, y: 0, z: -.0516857244, w: .998663425}
        inSlope: {x: 0, y: 0, z: 1.66745603, w: .076476939}
        outSlope: {x: 0, y: 0, z: 1.66745603, w: .076476939}
        tangentMode: 0
      - time: .216666669
        value: {x: 0, y: 0, z: -.0180081837, w: .999837816}
        inSlope: {x: 0, y: 0, z: 2.29821301, w: .0307792462}
        outSlope: {x: 0, y: 0, z: 2.29821301, w: .0307792462}
        tangentMode: 0
      - time: .233333334
        value: {x: 0, y: 0, z: .0249213725, w: .9996894}
        inSlope: {x: 0, y: 0, z: 2.77534318, w: -.0785118416}
        outSlope: {x: 0, y: 0, z: 2.77534318, w: -.0785118416}
        tangentMode: 0
      - time: .25
        value: {x: 0, y: 0, z: .0745032504, w: .997220755}
        inSlope: {x: 0, y: 0, z: 3.09431267, w: -.237709761}
        outSlope: {x: 0, y: 0, z: 3.09431267, w: -.237709761}
        tangentMode: 0
      - time: .266666681
        value: {x: 0, y: 0, z: .128065169, w: .991765738}
        inSlope: {x: 0, y: 0, z: 3.25209856, w: -.422713995}
        outSlope: {x: 0, y: 0, z: 3.25209856, w: -.422713995}
        tangentMode: 0
      - time: .283333361
        value: {x: 0, y: 0, z: .182906628, w: .983130276}
        inSlope: {x: 0, y: 0, z: 3.24910855, w: -.603069186}
        outSlope: {x: 0, y: 0, z: 3.24910855, w: -.603069186}
        tangentMode: 0
      - time: .300000042
        value: {x: 0, y: 0, z: .23636888, w: .971663415}
        inSlope: {x: 0, y: 0, z: 3.09005237, w: -.746198893}
        outSlope: {x: 0, y: 0, z: 3.09005237, w: -.746198893}
        tangentMode: 0
      - time: .316666722
        value: {x: 0, y: 0, z: .285908461, w: .95825696}
        inSlope: {x: 0, y: 0, z: 2.78349829, w: -.82159543}
        outSlope: {x: 0, y: 0, z: 2.78349829, w: -.82159543}
        tangentMode: 0
      - time: .333333343
        value: {x: 0, y: 0, z: .329152077, w: .944276929}
        inSlope: {x: 0, y: 0, z: 2.59462404, w: -.838804185}
        outSlope: {x: 0, y: 0, z: 2.59462404, w: -.838804185}
        tangentMode: 0
      m_PreInfinity: 2
      m_PostInfinity: 2
    path: Corp/Bras Droit
  - curve:
      serializedVersion: 2
      m_Curve:
      - time: 0
        value: {x: 0, y: 0, z: .196711347, w: .980461419}
        inSlope: {x: 0, y: 0, z: .29483375, w: -.0599205457}
        outSlope: {x: 0, y: 0, z: .29483375, w: -.0599205457}
        tangentMode: 0
      - time: .0166666675
        value: {x: 0, y: 0, z: .201625243, w: .979462743}
        inSlope: {x: 0, y: 0, z: .314304799, w: -.0648093224}
        outSlope: {x: 0, y: 0, z: .314304799, w: -.0648093224}
        tangentMode: 0
      - time: .0333333351
        value: {x: 0, y: 0, z: .207188174, w: .978301108}
        inSlope: {x: 0, y: 0, z: .345823407, w: -.0733154938}
        outSlope: {x: 0, y: 0, z: .345823407, w: -.0733154938}
        tangentMode: 0
      - time: .0500000045
        value: {x: 0, y: 0, z: .213152692, w: .977018893}
        inSlope: {x: 0, y: 0, z: .362526, w: -.0791233778}
        outSlope: {x: 0, y: 0, z: .362526, w: -.0791233778}
        tangentMode: 0
      - time: .0666666701
        value: {x: 0, y: 0, z: .219272375, w: .975663662}
        inSlope: {x: 0, y: 0, z: .364480048, w: -.0818967894}
        outSlope: {x: 0, y: 0, z: .364480048, w: -.0818967894}
        tangentMode: 0
      - time: .0833333358
        value: {x: 0, y: 0, z: .225302026, w: .974289}
        inSlope: {x: 0, y: 0, z: .351762801, w: -.0812816694}
        outSlope: {x: 0, y: 0, z: .351762801, w: -.0812816694}
        tangentMode: 0
      - time: .100000001
        value: {x: 0, y: 0, z: .230997801, w: .972954273}
        inSlope: {x: 0, y: 0, z: .324456573, w: -.0769329146}
        outSlope: {x: 0, y: 0, z: .324456573, w: -.0769329146}
        tangentMode: 0
      - time: .116666667
        value: {x: 0, y: 0, z: .236117244, w: .97172457}
        inSlope: {x: 0, y: 0, z: .282636851, w: -.0685518906}
        outSlope: {x: 0, y: 0, z: .282636851, w: -.0685518906}
        tangentMode: 0
      - time: .13333334
        value: {x: 0, y: 0, z: .24041903, w: .97066921}
        inSlope: {x: 0, y: 0, z: .226358742, w: -.0559347793}
        outSlope: {x: 0, y: 0, z: .226358742, w: -.0559347793}
        tangentMode: 0
      - time: .150000006
        value: {x: 0, y: 0, z: .243662536, w: .969860077}
        inSlope: {x: 0, y: 0, z: .155649945, w: -.0389939584}
        outSlope: {x: 0, y: 0, z: .155649945, w: -.0389939584}
        tangentMode: 0
      - time: .166666672
        value: {x: 0, y: 0, z: .245607361, w: .969369411}
        inSlope: {x: 0, y: 0, z: .0704951659, w: -.017800929}
        outSlope: {x: 0, y: 0, z: .0704951659, w: -.017800929}
        tangentMode: 0
      - time: .183333337
        value: {x: 0, y: 0, z: .246012375, w: .969266713}
        inSlope: {x: 0, y: 0, z: -.0320801176, w: .00810921285}
        outSlope: {x: 0, y: 0, z: -.0320801176, w: .00810921285}
        tangentMode: 0
      - time: .200000003
        value: {x: 0, y: 0, z: .244538024, w: .969639719}
        inSlope: {x: 0, y: 0, z: -.142985895, w: .0359165706}
        outSlope: {x: 0, y: 0, z: -.142985895, w: .0359165706}
        tangentMode: 0
      - time: .216666669
        value: {x: 0, y: 0, z: .241246179, w: .970463932}
        inSlope: {x: 0, y: 0, z: -.241254449, w: .059781082}
        outSlope: {x: 0, y: 0, z: -.241254449, w: .059781082}
        tangentMode: 0
      - time: .233333334
        value: {x: 0, y: 0, z: .23649621, w: .971632421}
        inSlope: {x: 0, y: 0, z: -.31796205, w: .0772029236}
        outSlope: {x: 0, y: 0, z: -.31796205, w: .0772029236}
        tangentMode: 0
      - time: .25
        value: {x: 0, y: 0, z: .230647445, w: .973037362}
        inSlope: {x: 0, y: 0, z: -.373075455, w: .088285774}
        outSlope: {x: 0, y: 0, z: -.373075455, w: .088285774}
        tangentMode: 0
      - time: .266666681
        value: {x: 0, y: 0, z: .224060357, w: .974575281}
        inSlope: {x: 0, y: 0, z: -.406499624, w: .093376562}
        outSlope: {x: 0, y: 0, z: -.406499624, w: .093376562}
        tangentMode: 0
      - time: .283333361
        value: {x: 0, y: 0, z: .217097446, w: .976149917}
        inSlope: {x: 0, y: 0, z: -.41810596, w: .0929867476}
        outSlope: {x: 0, y: 0, z: -.41810596, w: .0929867476}
        tangentMode: 0
      - time: .300000042
        value: {x: 0, y: 0, z: .210123479, w: .977674842}
        inSlope: {x: 0, y: 0, z: -.407757998, w: .087717101}
        outSlope: {x: 0, y: 0, z: -.407757998, w: .087717101}
        tangentMode: 0
      - time: .316666722
        value: {x: 0, y: 0, z: .203505501, w: .979073822}
        inSlope: {x: 0, y: 0, z: -.3753272, w: .0781614259}
        outSlope: {x: 0, y: 0, z: -.3753272, w: .0781614259}
        tangentMode: 0
      - time: .333333343
        value: {x: 0, y: 0, z: .197612584, w: .980280221}
        inSlope: {x: 0, y: 0, z: -.353576034, w: .0723840818}
        outSlope: {x: 0, y: 0, z: -.353576034, w: .0723840818}
        tangentMode: 0
      m_PreInfinity: 2
      m_PostInfinity: 2
    path: Corp/Bras G
  m_CompressedRotationCurves: []
  m_PositionCurves:
  - curve:
      serializedVersion: 2
      m_Curve:
      - time: 0
        value: {x: -1.11000001, y: -1.08999979, z: 0}
        inSlope: {x: 0, y: 0, z: 0}
        outSlope: {x: 0, y: 0, z: 0}
        tangentMode: 0
      m_PreInfinity: 2
      m_PostInfinity: 2
    path: Corp/Pied Gauche
  - curve:
      serializedVersion: 2
      m_Curve:
      - time: 0
        value: {x: .600000083, y: -.890000045, z: 0}
        inSlope: {x: 0, y: 0, z: 0}
        outSlope: {x: 0, y: 0, z: 0}
        tangentMode: 0
      m_PreInfinity: 2
      m_PostInfinity: 2
    path: Corp/Pied D
  - curve:
      serializedVersion: 2
      m_Curve:
      - time: 0
        value: {x: -1.42999971, y: .719999969, z: 0}
        inSlope: {x: 0, y: 0, z: 0}
        outSlope: {x: 0, y: 0, z: 0}
        tangentMode: 0
      - time: .183333337
        value: {x: -1.42999971, y: .719999969, z: 0}
        inSlope: {x: 0, y: 0, z: 0}
        outSlope: {x: 0, y: 0, z: 0}
        tangentMode: 0
      m_PreInfinity: 2
      m_PostInfinity: 2
    path: Corp/Bras G
  m_ScaleCurves: []
  m_FloatCurves: []
  m_PPtrCurves: []
  m_SampleRate: 60
  m_WrapMode: 0
  m_Bounds:
    m_Center: {x: 0, y: 0, z: 0}
    m_Extent: {x: 0, y: 0, z: 0}
  m_ClipBindingConstant:
    genericBindings:
    - path: 1936995893
      attribute: 2
      script: {fileID: 0}
      classID: 4
      customType: 0
      isPPtrCurve: 0
    - path: 648154239
      attribute: 2
      script: {fileID: 0}
      classID: 4
      customType: 0
      isPPtrCurve: 0
    - path: 3469497576
      attribute: 1
      script: {fileID: 0}
      classID: 4
      customType: 0
      isPPtrCurve: 0
    - path: 1888385636
      attribute: 1
      script: {fileID: 0}
      classID: 4
      customType: 0
      isPPtrCurve: 0
    - path: 648154239
      attribute: 1
      script: {fileID: 0}
      classID: 4
      customType: 0
      isPPtrCurve: 0
    - path: 3469497576
      attribute: 2
      script: {fileID: 0}
      classID: 4
      customType: 0
      isPPtrCurve: 0
    - path: 1888385636
      attribute: 2
      script: {fileID: 0}
      classID: 4
      customType: 0
      isPPtrCurve: 0
    pptrCurveMapping: []
  m_AnimationClipSettings:
    serializedVersion: 2
    m_StartTime: 0
    m_StopTime: .333333343
    m_OrientationOffsetY: 0
    m_Level: 0
    m_CycleOffset: 0
    m_LoopTime: 1
    m_LoopBlend: 0
    m_LoopBlendOrientation: 0
    m_LoopBlendPositionY: 0
    m_LoopBlendPositionXZ: 0
    m_KeepOriginalOrientation: 0
    m_KeepOriginalPositionY: 1
    m_KeepOriginalPositionXZ: 0
    m_HeightFromFeet: 0
    m_Mirror: 0
  m_EditorCurves:
  - curve:
      serializedVersion: 2
      m_Curve:
      - time: 0
        value: -1.11000001
        inSlope: 0
        outSlope: 0
        tangentMode: 10
      m_PreInfinity: 2
      m_PostInfinity: 2
    attribute: m_LocalPosition.x
    path: Corp/Pied Gauche
    classID: 4
    script: {fileID: 0}
  - curve:
      serializedVersion: 2
      m_Curve:
      - time: 0
        value: -1.08999979
        inSlope: 0
        outSlope: 0
        tangentMode: 10
      m_PreInfinity: 2
      m_PostInfinity: 2
    attribute: m_LocalPosition.y
    path: Corp/Pied Gauche
    classID: 4
    script: {fileID: 0}
  - curve:
      serializedVersion: 2
      m_Curve:
      - time: 0
        value: 0
        inSlope: 0
        outSlope: 0
        tangentMode: 10
      m_PreInfinity: 2
      m_PostInfinity: 2
    attribute: m_LocalPosition.z
    path: Corp/Pied Gauche
    classID: 4
    script: {fileID: 0}
  - curve:
      serializedVersion: 2
      m_Curve:
      - time: 0
        value: 0
        inSlope: 0
        outSlope: 0
        tangentMode: 0
      m_PreInfinity: 2
      m_PostInfinity: 2
    attribute: m_LocalRotation.x
    path: Corp/Pied Gauche
    classID: 4
    script: {fileID: 0}
  - curve:
      serializedVersion: 2
      m_Curve:
      - time: 0
        value: 0
        inSlope: 0
        outSlope: 0
        tangentMode: 0
      m_PreInfinity: 2
      m_PostInfinity: 2
    attribute: m_LocalRotation.y
    path: Corp/Pied Gauche
    classID: 4
    script: {fileID: 0}
  - curve:
      serializedVersion: 2
      m_Curve:
      - time: 0
        value: -.421460718
        inSlope: 0
        outSlope: 0
        tangentMode: 0
      m_PreInfinity: 2
      m_PostInfinity: 2
    attribute: m_LocalRotation.z
    path: Corp/Pied Gauche
    classID: 4
    script: {fileID: 0}
  - curve:
      serializedVersion: 2
      m_Curve:
      - time: 0
        value: .906846642
        inSlope: 0
        outSlope: 0
        tangentMode: 0
      m_PreInfinity: 2
      m_PostInfinity: 2
    attribute: m_LocalRotation.w
    path: Corp/Pied Gauche
    classID: 4
    script: {fileID: 0}
  - curve:
      serializedVersion: 2
      m_Curve:
      - time: 0
        value: .600000083
        inSlope: 0
        outSlope: 0
        tangentMode: 10
      m_PreInfinity: 2
      m_PostInfinity: 2
    attribute: m_LocalPosition.x
    path: Corp/Pied D
    classID: 4
    script: {fileID: 0}
  - curve:
      serializedVersion: 2
      m_Curve:
      - time: 0
        value: -.890000045
        inSlope: 0
        outSlope: 0
        tangentMode: 10
      m_PreInfinity: 2
      m_PostInfinity: 2
    attribute: m_LocalPosition.y
    path: Corp/Pied D
    classID: 4
    script: {fileID: 0}
  - curve:
      serializedVersion: 2
      m_Curve:
      - time: 0
        value: 0
        inSlope: 0
        outSlope: 0
        tangentMode: 10
      m_PreInfinity: 2
      m_PostInfinity: 2
    attribute: m_LocalPosition.z
    path: Corp/Pied D
    classID: 4
    script: {fileID: 0}
  - curve:
      serializedVersion: 2
      m_Curve:
      - time: 0
        value: 0
        inSlope: 0
        outSlope: 0
        tangentMode: 0
      m_PreInfinity: 2
      m_PostInfinity: 2
    attribute: m_LocalRotation.x
    path: Corp/Pied D
    classID: 4
    script: {fileID: 0}
  - curve:
      serializedVersion: 2
      m_Curve:
      - time: 0
        value: 0
        inSlope: 0
        outSlope: 0
        tangentMode: 0
      m_PreInfinity: 2
      m_PostInfinity: 2
    attribute: m_LocalRotation.y
    path: Corp/Pied D
    classID: 4
    script: {fileID: 0}
  - curve:
      serializedVersion: 2
      m_Curve:
      - time: 0
        value: .18606852
        inSlope: 0
        outSlope: 0
        tangentMode: 0
      m_PreInfinity: 2
      m_PostInfinity: 2
    attribute: m_LocalRotation.z
    path: Corp/Pied D
    classID: 4
    script: {fileID: 0}
  - curve:
      serializedVersion: 2
      m_Curve:
      - time: 0
        value: .982536793
        inSlope: 0
        outSlope: 0
        tangentMode: 0
      m_PreInfinity: 2
      m_PostInfinity: 2
    attribute: m_LocalRotation.w
    path: Corp/Pied D
    classID: 4
    script: {fileID: 0}
  - curve:
      serializedVersion: 2
      m_Curve:
      - time: 0
        value: 0
        inSlope: 0
        outSlope: 0
        tangentMode: 0
      - time: .0166666675
        value: 0
        inSlope: 0
        outSlope: 0
        tangentMode: 0
      - time: .0333333351
        value: 0
        inSlope: 0
        outSlope: 0
        tangentMode: 0
      - time: .0500000045
        value: 0
        inSlope: 0
        outSlope: 0
        tangentMode: 0
      - time: .0666666701
        value: 0
        inSlope: 0
        outSlope: 0
        tangentMode: 0
      - time: .0833333358
        value: 0
        inSlope: 0
        outSlope: 0
        tangentMode: 0
      - time: .100000001
        value: 0
        inSlope: 0
        outSlope: 0
        tangentMode: 0
      - time: .116666667
        value: 0
        inSlope: 0
        outSlope: 0
        tangentMode: 0
      - time: .13333334
        value: 0
        inSlope: 0
        outSlope: 0
        tangentMode: 0
      - time: .150000006
        value: 0
        inSlope: 0
        outSlope: 0
        tangentMode: 0
      - time: .166666672
        value: 0
        inSlope: 0
        outSlope: 0
        tangentMode: 0
      - time: .183333337
        value: 0
        inSlope: 0
        outSlope: 0
        tangentMode: 0
      - time: .200000003
        value: 0
        inSlope: 0
        outSlope: 0
        tangentMode: 0
      - time: .216666669
        value: 0
        inSlope: 0
        outSlope: 0
        tangentMode: 0
      - time: .233333334
        value: 0
        inSlope: 0
        outSlope: 0
        tangentMode: 0
      - time: .25
        value: 0
        inSlope: 0
        outSlope: 0
        tangentMode: 0
      - time: .266666681
        value: 0
        inSlope: 0
        outSlope: 0
        tangentMode: 0
      - time: .283333361
        value: 0
        inSlope: 0
        outSlope: 0
        tangentMode: 0
      - time: .300000042
        value: 0
        inSlope: 0
        outSlope: 0
        tangentMode: 0
      - time: .316666722
        value: 0
        inSlope: 0
        outSlope: 0
        tangentMode: 0
      - time: .333333343
        value: 0
        inSlope: 0
        outSlope: 0
        tangentMode: 0
      m_PreInfinity: 2
      m_PostInfinity: 2
    attribute: m_LocalRotation.x
    path: Corp/Bras Droit
    classID: 4
    script: {fileID: 0}
  - curve:
      serializedVersion: 2
      m_Curve:
      - time: 0
        value: 0
        inSlope: 0
        outSlope: 0
        tangentMode: 0
      - time: .0166666675
        value: 0
        inSlope: 0
        outSlope: 0
        tangentMode: 0
      - time: .0333333351
        value: 0
        inSlope: 0
        outSlope: 0
        tangentMode: 0
      - time: .0500000045
        value: 0
        inSlope: 0
        outSlope: 0
        tangentMode: 0
      - time: .0666666701
        value: 0
        inSlope: 0
        outSlope: 0
        tangentMode: 0
      - time: .0833333358
        value: 0
        inSlope: 0
        outSlope: 0
        tangentMode: 0
      - time: .100000001
        value: 0
        inSlope: 0
        outSlope: 0
        tangentMode: 0
      - time: .116666667
        value: 0
        inSlope: 0
        outSlope: 0
        tangentMode: 0
      - time: .13333334
        value: 0
        inSlope: 0
        outSlope: 0
        tangentMode: 0
      - time: .150000006
        value: 0
        inSlope: 0
        outSlope: 0
        tangentMode: 0
      - time: .166666672
        value: 0
        inSlope: 0
        outSlope: 0
        tangentMode: 0
      - time: .183333337
        value: 0
        inSlope: 0
        outSlope: 0
        tangentMode: 0
      - time: .200000003
        value: 0
        inSlope: 0
        outSlope: 0
        tangentMode: 0
      - time: .216666669
        value: 0
        inSlope: 0
        outSlope: 0
        tangentMode: 0
      - time: .233333334
        value: 0
        inSlope: 0
        outSlope: 0
        tangentMode: 0
      - time: .25
        value: 0
        inSlope: 0
        outSlope: 0
        tangentMode: 0
      - time: .266666681
        value: 0
        inSlope: 0
        outSlope: 0
        tangentMode: 0
      - time: .283333361
        value: 0
        inSlope: 0
        outSlope: 0
        tangentMode: 0
      - time: .300000042
        value: 0
        inSlope: 0
        outSlope: 0
        tangentMode: 0
      - time: .316666722
        value: 0
        inSlope: 0
        outSlope: 0
        tangentMode: 0
      - time: .333333343
        value: 0
        inSlope: 0
        outSlope: 0
        tangentMode: 0
      m_PreInfinity: 2
      m_PostInfinity: 2
    attribute: m_LocalRotation.y
    path: Corp/Bras Droit
    classID: 4
    script: {fileID: 0}
  - curve:
      serializedVersion: 2
      m_Curve:
      - time: 0
        value: .334745497
        inSlope: -.0061887498
        outSlope: -.0061887498
        tangentMode: 0
      - time: .0166666675
        value: .334642351
        inSlope: .0486597382
        outSlope: .0486597382
        tangentMode: 0
      - time: .0333333351
        value: .336367488
        inSlope: .0385057926
        outSlope: .0385057926
        tangentMode: 0
      - time: .0500000045
        value: .335925877
        inSlope: -.211571768
        outSlope: -.211571768
        tangentMode: 0
      - time: .0666666701
        value: .329315096
        inSlope: -.70384568
        outSlope: -.70384568
        tangentMode: 0
      - time: .0833333358
        value: .312464356
        inSlope: -1.44555259
        outSlope: -1.44555259
        tangentMode: 0
      - time: .100000001
        value: .281130016
        inSlope: -2.45013452
        outSlope: -2.45013452
        tangentMode: 0
      - time: .116666667
        value: .230793208
        inSlope: -3.73405313
        outSlope: -3.73405313
        tangentMode: 0
      - time: .13333334
        value: .156661555
        inSlope: -5.30515957
        outSlope: -5.30515957
        tangentMode: 0
      - time: .150000006
        value: .053954538
        inSlope: -7.13719416
        outSlope: -7.13719416
        tangentMode: 0
      - time: .166666672
        value: -.0812449008
        inSlope: -3.82633781
        outSlope: -3.82633781
        tangentMode: 0
      - time: .183333337
        value: -.0735900477
        inSlope: .886775374
        outSlope: .886775374
        tangentMode: 0
      - time: .200000003
        value: -.0516857244
        inSlope: 1.66745603
        outSlope: 1.66745603
        tangentMode: 0
      - time: .216666669
        value: -.0180081837
        inSlope: 2.29821301
        outSlope: 2.29821301
        tangentMode: 0
      - time: .233333334
        value: .0249213725
        inSlope: 2.77534318
        outSlope: 2.77534318
        tangentMode: 0
      - time: .25
        value: .0745032504
        inSlope: 3.09431267
        outSlope: 3.09431267
        tangentMode: 0
      - time: .266666681
        value: .128065169
        inSlope: 3.25209856
        outSlope: 3.25209856
        tangentMode: 0
      - time: .283333361
        value: .182906628
        inSlope: 3.24910855
        outSlope: 3.24910855
        tangentMode: 0
      - time: .300000042
        value: .23636888
        inSlope: 3.09005237
        outSlope: 3.09005237
        tangentMode: 0
      - time: .316666722
        value: .285908461
        inSlope: 2.78349829
        outSlope: 2.78349829
        tangentMode: 0
      - time: .333333343
        value: .329152077
        inSlope: 2.59462404
        outSlope: 2.59462404
        tangentMode: 0
      m_PreInfinity: 2
      m_PostInfinity: 2
    attribute: m_LocalRotation.z
    path: Corp/Bras Droit
    classID: 4
    script: {fileID: 0}
  - curve:
      serializedVersion: 2
      m_Curve:
      - time: 0
        value: .942308605
        inSlope: .00219583511
        outSlope: .00219583511
        tangentMode: 0
      - time: .0166666675
        value: .942345202
        inSlope: -.0173342209
        outSlope: -.0173342209
        tangentMode: 0
      - time: .0333333351
        value: .941730797
        inSlope: -.0137025109
        outSlope: -.0137025109
        tangentMode: 0
      - time: .0500000045
        value: .941888452
        inSlope: .0746780708
        outSlope: .0746780708
        tangentMode: 0
      - time: .0666666701
        value: .944220066
        inSlope: .241230756
        outSlope: .241230756
        tangentMode: 0
      - time: .0833333358
        value: .949929476
        inSlope: .463489354
        outSlope: .463489354
        tangentMode: 0
      - time: .100000001
        value: .959669709
        inSlope: .692201316
        outSlope: .692201316
        tangentMode: 0
      - time: .116666667
        value: .973002851
        inSlope: .839479446
        outSlope: .839479446
        tangentMode: 0
      - time: .13333334
        value: .987652361
        inSlope: .766215801
        outSlope: .766215801
        tangentMode: 0
      - time: .150000006
        value: .998543382
        inSlope: .271253616
        outSlope: .271253616
        tangentMode: 0
      - time: .166666672
        value: .996694148
        inSlope: -.0376439095
        outSlope: -.0376439095
        tangentMode: 0
      - time: .183333337
        value: .997288585
        inSlope: .0590783432
        outSlope: .0590783432
        tangentMode: 0
      - time: .200000003
        value: .998663425
        inSlope: .076476939
        outSlope: .076476939
        tangentMode: 0
      - time: .216666669
        value: .999837816
        inSlope: .0307792462
        outSlope: .0307792462
        tangentMode: 0
      - time: .233333334
        value: .9996894
        inSlope: -.0785118416
        outSlope: -.0785118416
        tangentMode: 0
      - time: .25
        value: .997220755
        inSlope: -.237709761
        outSlope: -.237709761
        tangentMode: 0
      - time: .266666681
        value: .991765738
        inSlope: -.422713995
        outSlope: -.422713995
        tangentMode: 0
      - time: .283333361
        value: .983130276
        inSlope: -.603069186
        outSlope: -.603069186
        tangentMode: 0
      - time: .300000042
        value: .971663415
        inSlope: -.746198893
        outSlope: -.746198893
        tangentMode: 0
      - time: .316666722
        value: .95825696
        inSlope: -.82159543
        outSlope: -.82159543
        tangentMode: 0
      - time: .333333343
        value: .944276929
        inSlope: -.838804185
        outSlope: -.838804185
        tangentMode: 0
      m_PreInfinity: 2
      m_PostInfinity: 2
    attribute: m_LocalRotation.w
    path: Corp/Bras Droit
    classID: 4
    script: {fileID: 0}
  - curve:
      serializedVersion: 2
      m_Curve:
      - time: 0
        value: -1.42999971
        inSlope: 0
        outSlope: 0
        tangentMode: 10
      - time: .183333337
        value: -1.42999971
        inSlope: 0
        outSlope: 0
        tangentMode: 10
      m_PreInfinity: 2
      m_PostInfinity: 2
    attribute: m_LocalPosition.x
    path: Corp/Bras G
    classID: 4
    script: {fileID: 0}
  - curve:
      serializedVersion: 2
      m_Curve:
      - time: 0
        value: .719999969
        inSlope: 0
        outSlope: 0
        tangentMode: 10
      - time: .183333337
        value: .719999969
        inSlope: 0
        outSlope: 0
        tangentMode: 10
      m_PreInfinity: 2
      m_PostInfinity: 2
    attribute: m_LocalPosition.y
    path: Corp/Bras G
    classID: 4
    script: {fileID: 0}
  - curve:
      serializedVersion: 2
      m_Curve:
      - time: 0
        value: 0
        inSlope: 0
        outSlope: 0
        tangentMode: 10
      - time: .183333337
        value: 0
        inSlope: 0
        outSlope: 0
        tangentMode: 10
      m_PreInfinity: 2
      m_PostInfinity: 2
    attribute: m_LocalPosition.z
    path: Corp/Bras G
    classID: 4
    script: {fileID: 0}
  - curve:
      serializedVersion: 2
      m_Curve:
      - time: 0
        value: 0
        inSlope: 0
        outSlope: 0
        tangentMode: 0
      - time: .0166666675
        value: 0
        inSlope: 0
        outSlope: 0
        tangentMode: 0
      - time: .0333333351
        value: 0
        inSlope: 0
        outSlope: 0
        tangentMode: 0
      - time: .0500000045
        value: 0
        inSlope: 0
        outSlope: 0
        tangentMode: 0
      - time: .0666666701
        value: 0
        inSlope: 0
        outSlope: 0
        tangentMode: 0
      - time: .0833333358
        value: 0
        inSlope: 0
        outSlope: 0
        tangentMode: 0
      - time: .100000001
        value: 0
        inSlope: 0
        outSlope: 0
        tangentMode: 0
      - time: .116666667
        value: 0
        inSlope: 0
        outSlope: 0
        tangentMode: 0
      - time: .13333334
        value: 0
        inSlope: 0
        outSlope: 0
        tangentMode: 0
      - time: .150000006
        value: 0
        inSlope: 0
        outSlope: 0
        tangentMode: 0
      - time: .166666672
        value: 0
        inSlope: 0
        outSlope: 0
        tangentMode: 0
      - time: .183333337
        value: 0
        inSlope: 0
        outSlope: 0
        tangentMode: 0
      - time: .200000003
        value: 0
        inSlope: 0
        outSlope: 0
        tangentMode: 0
      - time: .216666669
        value: 0
        inSlope: 0
        outSlope: 0
        tangentMode: 0
      - time: .233333334
        value: 0
        inSlope: 0
        outSlope: 0
        tangentMode: 0
      - time: .25
        value: 0
        inSlope: 0
        outSlope: 0
        tangentMode: 0
      - time: .266666681
        value: 0
        inSlope: 0
        outSlope: 0
        tangentMode: 0
      - time: .283333361
        value: 0
        inSlope: 0
        outSlope: 0
        tangentMode: 0
      - time: .300000042
        value: 0
        inSlope: 0
        outSlope: 0
        tangentMode: 0
      - time: .316666722
        value: 0
        inSlope: 0
        outSlope: 0
        tangentMode: 0
      - time: .333333343
        value: 0
        inSlope: 0
        outSlope: 0
        tangentMode: 0
      m_PreInfinity: 2
      m_PostInfinity: 2
    attribute: m_LocalRotation.x
    path: Corp/Bras G
    classID: 4
    script: {fileID: 0}
  - curve:
      serializedVersion: 2
      m_Curve:
      - time: 0
        value: 0
        inSlope: 0
        outSlope: 0
        tangentMode: 0
      - time: .0166666675
        value: 0
        inSlope: 0
        outSlope: 0
        tangentMode: 0
      - time: .0333333351
        value: 0
        inSlope: 0
        outSlope: 0
        tangentMode: 0
      - time: .0500000045
        value: 0
        inSlope: 0
        outSlope: 0
        tangentMode: 0
      - time: .0666666701
        value: 0
        inSlope: 0
        outSlope: 0
        tangentMode: 0
      - time: .0833333358
        value: 0
        inSlope: 0
        outSlope: 0
        tangentMode: 0
      - time: .100000001
        value: 0
        inSlope: 0
        outSlope: 0
        tangentMode: 0
      - time: .116666667
        value: 0
        inSlope: 0
        outSlope: 0
        tangentMode: 0
      - time: .13333334
        value: 0
        inSlope: 0
        outSlope: 0
        tangentMode: 0
      - time: .150000006
        value: 0
        inSlope: 0
        outSlope: 0
        tangentMode: 0
      - time: .166666672
        value: 0
        inSlope: 0
        outSlope: 0
        tangentMode: 0
      - time: .183333337
        value: 0
        inSlope: 0
        outSlope: 0
        tangentMode: 0
      - time: .200000003
        value: 0
        inSlope: 0
        outSlope: 0
        tangentMode: 0
      - time: .216666669
        value: 0
        inSlope: 0
        outSlope: 0
        tangentMode: 0
      - time: .233333334
        value: 0
        inSlope: 0
        outSlope: 0
        tangentMode: 0
      - time: .25
        value: 0
        inSlope: 0
        outSlope: 0
        tangentMode: 0
      - time: .266666681
        value: 0
        inSlope: 0
        outSlope: 0
        tangentMode: 0
      - time: .283333361
        value: 0
        inSlope: 0
        outSlope: 0
        tangentMode: 0
      - time: .300000042
        value: 0
        inSlope: 0
        outSlope: 0
        tangentMode: 0
      - time: .316666722
        value: 0
        inSlope: 0
        outSlope: 0
        tangentMode: 0
      - time: .333333343
        value: 0
        inSlope: 0
        outSlope: 0
        tangentMode: 0
      m_PreInfinity: 2
      m_PostInfinity: 2
    attribute: m_LocalRotation.y
    path: Corp/Bras G
    classID: 4
    script: {fileID: 0}
  - curve:
      serializedVersion: 2
      m_Curve:
      - time: 0
        value: .196711347
        inSlope: .29483375
        outSlope: .29483375
        tangentMode: 0
      - time: .0166666675
        value: .201625243
        inSlope: .314304799
        outSlope: .314304799
        tangentMode: 0
      - time: .0333333351
        value: .207188174
        inSlope: .345823407
        outSlope: .345823407
        tangentMode: 0
      - time: .0500000045
        value: .213152692
        inSlope: .362526
        outSlope: .362526
        tangentMode: 0
      - time: .0666666701
        value: .219272375
        inSlope: .364480048
        outSlope: .364480048
        tangentMode: 0
      - time: .0833333358
        value: .225302026
        inSlope: .351762801
        outSlope: .351762801
        tangentMode: 0
      - time: .100000001
        value: .230997801
        inSlope: .324456573
        outSlope: .324456573
        tangentMode: 0
      - time: .116666667
        value: .236117244
        inSlope: .282636851
        outSlope: .282636851
        tangentMode: 0
      - time: .13333334
        value: .24041903
        inSlope: .226358742
        outSlope: .226358742
        tangentMode: 0
      - time: .150000006
        value: .243662536
        inSlope: .155649945
        outSlope: .155649945
        tangentMode: 0
      - time: .166666672
        value: .245607361
        inSlope: .0704951659
        outSlope: .0704951659
        tangentMode: 0
      - time: .183333337
        value: .246012375
        inSlope: -.0320801176
        outSlope: -.0320801176
        tangentMode: 0
      - time: .200000003
        value: .244538024
        inSlope: -.142985895
        outSlope: -.142985895
        tangentMode: 0
      - time: .216666669
        value: .241246179
        inSlope: -.241254449
        outSlope: -.241254449
        tangentMode: 0
      - time: .233333334
        value: .23649621
        inSlope: -.31796205
        outSlope: -.31796205
        tangentMode: 0
      - time: .25
        value: .230647445
        inSlope: -.373075455
        outSlope: -.373075455
        tangentMode: 0
      - time: .266666681
        value: .224060357
        inSlope: -.406499624
        outSlope: -.406499624
        tangentMode: 0
      - time: .283333361
        value: .217097446
        inSlope: -.41810596
        outSlope: -.41810596
        tangentMode: 0
      - time: .300000042
        value: .210123479
        inSlope: -.407757998
        outSlope: -.407757998
        tangentMode: 0
      - time: .316666722
        value: .203505501
        inSlope: -.3753272
        outSlope: -.3753272
        tangentMode: 0
      - time: .333333343
        value: .197612584
        inSlope: -.353576034
        outSlope: -.353576034
        tangentMode: 0
      m_PreInfinity: 2
      m_PostInfinity: 2
    attribute: m_LocalRotation.z
    path: Corp/Bras G
    classID: 4
    script: {fileID: 0}
  - curve:
      serializedVersion: 2
      m_Curve:
      - time: 0
        value: .980461419
        inSlope: -.0599205457
        outSlope: -.0599205457
        tangentMode: 0
      - time: .0166666675
        value: .979462743
        inSlope: -.0648093224
        outSlope: -.0648093224
        tangentMode: 0
      - time: .0333333351
        value: .978301108
        inSlope: -.0733154938
        outSlope: -.0733154938
        tangentMode: 0
      - time: .0500000045
        value: .977018893
        inSlope: -.0791233778
        outSlope: -.0791233778
        tangentMode: 0
      - time: .0666666701
        value: .975663662
        inSlope: -.0818967894
        outSlope: -.0818967894
        tangentMode: 0
      - time: .0833333358
        value: .974289
        inSlope: -.0812816694
        outSlope: -.0812816694
        tangentMode: 0
      - time: .100000001
        value: .972954273
        inSlope: -.0769329146
        outSlope: -.0769329146
        tangentMode: 0
      - time: .116666667
        value: .97172457
        inSlope: -.0685518906
        outSlope: -.0685518906
        tangentMode: 0
      - time: .13333334
        value: .97066921
        inSlope: -.0559347793
        outSlope: -.0559347793
        tangentMode: 0
      - time: .150000006
        value: .969860077
        inSlope: -.0389939584
        outSlope: -.0389939584
        tangentMode: 0
      - time: .166666672
        value: .969369411
        inSlope: -.017800929
        outSlope: -.017800929
        tangentMode: 0
      - time: .183333337
        value: .969266713
        inSlope: .00810921285
        outSlope: .00810921285
        tangentMode: 0
      - time: .200000003
        value: .969639719
        inSlope: .0359165706
        outSlope: .0359165706
        tangentMode: 0
      - time: .216666669
        value: .970463932
        inSlope: .059781082
        outSlope: .059781082
        tangentMode: 0
      - time: .233333334
        value: .971632421
        inSlope: .0772029236
        outSlope: .0772029236
        tangentMode: 0
      - time: .25
        value: .973037362
        inSlope: .088285774
        outSlope: .088285774
        tangentMode: 0
      - time: .266666681
        value: .974575281
        inSlope: .093376562
        outSlope: .093376562
        tangentMode: 0
      - time: .283333361
        value: .976149917
        inSlope: .0929867476
        outSlope: .0929867476
        tangentMode: 0
      - time: .300000042
        value: .977674842
        inSlope: .087717101
        outSlope: .087717101
        tangentMode: 0
      - time: .316666722
        value: .979073822
        inSlope: .0781614259
        outSlope: .0781614259
        tangentMode: 0
      - time: .333333343
        value: .980280221
        inSlope: .0723840818
        outSlope: .0723840818
        tangentMode: 0
      m_PreInfinity: 2
      m_PostInfinity: 2
    attribute: m_LocalRotation.w
    path: Corp/Bras G
    classID: 4
    script: {fileID: 0}
  m_EulerEditorCurves:
  - curve:
      serializedVersion: 2
      m_Curve:
      - time: 0
        value: 0
        inSlope: 0
        outSlope: 0
        tangentMode: 10
      m_PreInfinity: 2
      m_PostInfinity: 2
    attribute: localEulerAnglesBaked.x
    path: Corp/Pied Gauche
    classID: 4
    script: {fileID: 0}
  - curve:
      serializedVersion: 2
      m_Curve:
      - time: 0
        value: 0
        inSlope: 0
        outSlope: 0
        tangentMode: 10
      m_PreInfinity: 2
      m_PostInfinity: 2
    attribute: localEulerAnglesBaked.y
    path: Corp/Pied Gauche
    classID: 4
    script: {fileID: 0}
  - curve:
      serializedVersion: 2
      m_Curve:
      - time: 0
        value: -49.8536835
        inSlope: 0
        outSlope: 0
        tangentMode: 10
      m_PreInfinity: 2
      m_PostInfinity: 2
    attribute: localEulerAnglesBaked.z
    path: Corp/Pied Gauche
    classID: 4
    script: {fileID: 0}
  - curve:
      serializedVersion: 2
      m_Curve:
      - time: 0
        value: 0
        inSlope: 0
        outSlope: 0
        tangentMode: 10
      m_PreInfinity: 2
      m_PostInfinity: 2
    attribute: localEulerAnglesBaked.x
    path: Corp/Pied D
    classID: 4
    script: {fileID: 0}
  - curve:
      serializedVersion: 2
      m_Curve:
      - time: 0
        value: 0
        inSlope: 0
        outSlope: 0
        tangentMode: 10
      m_PreInfinity: 2
      m_PostInfinity: 2
    attribute: localEulerAnglesBaked.y
    path: Corp/Pied D
    classID: 4
    script: {fileID: 0}
  - curve:
      serializedVersion: 2
      m_Curve:
      - time: 0
        value: 21.4468689
        inSlope: 0
        outSlope: 0
        tangentMode: 10
      m_PreInfinity: 2
      m_PostInfinity: 2
    attribute: localEulerAnglesBaked.z
    path: Corp/Pied D
    classID: 4
    script: {fileID: 0}
  - curve:
      serializedVersion: 2
      m_Curve:
      - time: 0
        value: 0
        inSlope: 0
        outSlope: 0
        tangentMode: 10
      - time: .166666672
        value: 0
        inSlope: 0
        outSlope: 0
        tangentMode: 10
      - time: .333333343
        value: 0
        inSlope: 0
        outSlope: 0
        tangentMode: 10
      m_PreInfinity: 2
      m_PostInfinity: 2
    attribute: localEulerAnglesBaked.x
    path: Corp/Bras Droit
    classID: 4
    script: {fileID: 0}
  - curve:
      serializedVersion: 2
      m_Curve:
      - time: 0
        value: 0
        inSlope: 0
        outSlope: 0
        tangentMode: 10
      - time: .166666672
        value: 0
        inSlope: 0
        outSlope: 0
        tangentMode: 10
      - time: .333333343
        value: 0
        inSlope: 0
        outSlope: 0
        tangentMode: 10
      m_PreInfinity: 2
      m_PostInfinity: 2
    attribute: localEulerAnglesBaked.y
    path: Corp/Bras Droit
    classID: 4
    script: {fileID: 0}
  - curve:
      serializedVersion: 2
      m_Curve:
      - time: 0
        value: 39.1141205
        inSlope: -17.1436443
        outSlope: -17.1436443
        tangentMode: 0
      - time: .166666672
        value: -9.32025146
        inSlope: -1050.04016
        outSlope: -2.03846741
        tangentMode: 1
      - time: .333333343
        value: 38.4346313
        inSlope: 286.529297
        outSlope: 286.529297
        tangentMode: 10
      m_PreInfinity: 2
      m_PostInfinity: 2
    attribute: localEulerAnglesBaked.z
    path: Corp/Bras Droit
    classID: 4
    script: {fileID: 0}
  - curve:
      serializedVersion: 2
      m_Curve:
      - time: 0
        value: 0
        inSlope: 0
        outSlope: 0
        tangentMode: 10
      - time: .183333337
        value: 0
        inSlope: 0
        outSlope: 0
        tangentMode: 10
      m_PreInfinity: 2
      m_PostInfinity: 2
    attribute: localEulerAnglesBaked.x
    path: Corp/Bras G
    classID: 4
    script: {fileID: 0}
  - curve:
      serializedVersion: 2
      m_Curve:
      - time: 0
        value: 0
        inSlope: 0
        outSlope: 0
        tangentMode: 10
      - time: .183333337
        value: 0
        inSlope: 0
        outSlope: 0
        tangentMode: 10
      m_PreInfinity: 2
      m_PostInfinity: 2
    attribute: localEulerAnglesBaked.y
    path: Corp/Bras G
    classID: 4
    script: {fileID: 0}
  - curve:
      serializedVersion: 2
      m_Curve:
      - time: 0
        value: 22.6894226
        inSlope: 31.6031704
        outSlope: 31.6031704
        tangentMode: 10
      - time: .183333337
        value: 28.4833374
        inSlope: -3.16032124
        outSlope: -3.16032124
        tangentMode: 10
      - time: .333333343
        value: 22.7947655
        inSlope: -37.9238129
        outSlope: -37.9238129
        tangentMode: 10
      m_PreInfinity: 2
      m_PostInfinity: 2
    attribute: localEulerAnglesBaked.z
    path: Corp/Bras G
    classID: 4
    script: {fileID: 0}
  m_HasGenericRootTransform: 0
  m_HasMotionFloatCurves: 0
  m_GenerateMotionCurves: 0
  m_Events: []
